0 86 77 -16 57 41
0 86 77 -16 57 41
1 177 41 -111 56 70
2 217 131 157 67 48
0 87 77 -16 58 41
0 87 77 -16 58 41
1 176 47 -115 53 58
0 86 77 -16 57 41
1 177 42 -111 56 68
2 217 131 160 67 47
0 86 77 -16 57 41
0 86 77 -16 57 41
1 176 41 -110 56 70
2 217 132 160 68 46
0 86 77 -16 57 41
0 86 77 -16 57 41
1 217 131 158 68 48
0 86 77 -16 57 41
0 86 77 -16 57 41
1 176 42 -114 55 67
0 86 77 -16 57 41
1 176 41 -110 56 70
2 217 131 158 68 48
0 86 77 -16 57 41
0 86 77 -16 57 41
1 176 42 -110 55 68
0 86 77 -16 57 41
1 177 42 -109 53 67
2 217 131 158 67 48
0 86 77 -16 57 41
0 86 77 -16 57 41
1 177 41 -108 53 70
0 86 77 -16 57 41
1 177 41 -107 54 70
2 217 131 158 68 48
0 86 77 -16 57 41
0 86 77 -16 57 41
1 177 41 -109 54 70
0 86 77 -16 57 41
1 176 43 -110 56 66
2 217 131 158 68 48
0 86 77 -16 57 41
0 87 77 -16 58 41
1 176 41 -109 56 70
0 86 77 -16 57 41
1 176 39 161 35 21
2 217 131 157 67 48
0 87 77 -16 58 41
0 86 77 -16 57 41
0 86 77 -16 57 41
1 176 44 -108 55 64
2 217 131 159 68 46
0 86 77 -16 57 41
0 86 77 -16 57 41
1 176 41 -110 55 70
0 86 77 -16 57 41
1 176 43 -111 55 65
2 217 130 160 68 47
0 86 77 -16 57 41
0 87 77 -16 58 41
1 176 41 -110 55 70
2 217 130 158 68 47
0 86 77 -16 57 41
0 86 77 -16 57 40
1 177 41 -110 54 70
0 86 77 -16 57 41
1 177 41 -111 54 70
2 217 130 158 68 47
0 86 77 -16 57 41
0 86 77 -16 57 41
1 177 41 -107 54 70
2 217 130 158 68 47
0 86 77 -16 57 41
0 86 77 -16 57 41
1 177 41 -108 54 70
0 86 77 -14 57 41
1 176 41 -109 55 69
2 217 131 160 67 47
0 86 77 -16 57 41
0 86 77 -16 57 41
1 176 41 -107 56 70
0 86 77 -16 57 41
1 176 41 -108 56 70
2 217 131 159 68 48
0 86 77 -16 57 41
0 86 77 -16 57 41
1 176 41 -109 55 70
2 217 131 162 68 46
0 86 77 -16 57 41
0 86 77 -16 57 41
1 176 41 -109 56 70
2 217 131 157 67 48
0 86 77 -16 57 41
1 177 41 -108 54 70
2 217 131 158 68 48
0 86 78 -14 57 40
0 86 77 -16 57 41
0 86 77 -16 57 41
1 177 41 -107 53 70
2 217 130 159 68 47
0 86 77 -16 57 41
0 86 77 -16 57 41
1 176 41 -111 55 70
0 86 77 -16 57 41
1 177 41 -107 54 70
2 217 131 158 68 48
0 86 77 -16 57 41
0 86 77 -16 57 41
1 176 41 -107 55 70
0 86 77 -16 57 41
1 177 41 -107 54 70
2 217 131 162 68 45
0 86 77 -16 57 41
0 86 77 -16 57 41
1 177 41 -106 53 70
0 87 77 -16 58 41
1 177 43 -107 54 66
2 217 131 162 67 46
0 86 77 -16 57 41
0 86 77 -16 57 41
1 177 41 -108 53 70
2 217 131 158 68 48
0 86 77 -16 57 41
0 86 77 -16 57 41
0 86 77 -16 57 41
1 177 41 -109 53 70
2 217 131 158 68 48
0 86 77 -16 57 41
0 86 77 -16 57 41
1 177 41 -110 54 70
2 217 131 158 68 48
0 86 77 -16 57 41
0 86 77 -16 57 41
1 176 41 -109 56 70
0 86 77 -16 57 41
1 176 41 -109 56 70
2 217 130 160 67 47
0 86 77 -16 57 41
0 86 77 -16 57 41
1 176 43 -111 56 65
0 86 77 -16 57 41
1 177 41 -109 54 70
2 217 131 159 68 48
0 86 77 -16 57 41
0 86 77 -16 57 41
1 177 42 -107 54 68
0 86 77 -16 57 41
1 177 42 -107 54 68
2 217 130 157 67 47
0 86 77 -16 57 41
0 86 77 -16 57 41
1 177 41 -109 54 70
0 86 77 -16 57 41
1 178 41 -108 51 70
2 217 131 158 67 48
0 86 77 -16 57 41
0 86 77 -16 57 41
1 217 131 157 67 48
0 86 77 -16 57 41
1 177 41 -109 53 70
2 217 130 158 68 47
0 87 77 -16 58 41
0 86 77 -16 57 41
1 177 41 -116 53 70
0 86 77 -16 57 41
1 176 42 -112 56 68
2 217 131 158 67 48
0 87 77 -16 58 41
0 86 77 -16 57 41
0 86 77 -16 57 41
1 176 41 -110 56 70
2 217 131 158 68 48
0 86 77 -16 57 41
0 86 77 -16 57 41
1 176 41 -108 55 70
2 217 131 158 68 48
0 86 77 -16 57 41
0 86 77 -16 57 41
1 177 41 -107 54 70
2 217 130 159 68 47
0 86 77 -16 57 41
0 86 77 -16 57 41
1 177 41 -108 54 70
2 217 130 158 68 47
0 86 77 -16 57 41
1 177 41 -108 54 70
2 217 131 158 68 48
0 86 77 -16 57 41
0 86 77 -16 57 41
1 176 41 -110 55 70
2 217 130 160 68 47
0 86 77 -16 57 41
0 86 77 -16 57 41
1 177 41 -107 54 70
2 217 131 160 68 46
0 86 77 -16 57 41
0 86 77 -16 57 41
1 176 42 -107 56 68
2 217 130 160 68 47
0 86 77 -16 57 41
0 86 77 -16 57 41
1 177 41 -109 53 70
2 217 131 158 68 48
0 86 77 -16 57 41
0 86 77 -16 57 41
1 177 41 -109 53 70
2 217 131 158 67 48
0 86 78 -14 57 40
0 86 77 -16 57 41
1 177 41 -117 53 70
2 217 131 159 68 48
0 86 77 -16 57 41
0 86 77 -16 57 41
1 177 41 -110 54 70
2 217 130 160 68 47
0 86 77 -16 57 41
0 86 77 -16 57 41
1 177 41 -108 54 70
2 217 131 158 68 48
0 86 77 -16 57 41
0 86 77 -16 57 41
1 176 41 -106 53 70
2 217 131 159 68 48
0 86 77 -16 57 41
0 86 77 -16 57 41
1 177 41 -106 54 70
2 217 131 158 67 48
0 86 77 -16 57 41
0 86 77 -16 57 41
1 176 46 -116 56 60
2 217 131 158 68 48
0 86 77 -16 57 41
0 86 77 -16 57 41
1 176 41 -109 55 70
2 217 131 159 67 48
0 86 77 -16 57 41
0 86 77 -16 57 41
1 175 53 164 50 46
0 86 77 -16 57 41
1 174 52 -118 52 48
2 217 131 158 67 48
0 86 77 -16 57 41
0 86 77 -16 57 41
1 176 41 -110 55 70
2 217 130 159 67 47
0 86 77 -16 57 41
0 86 77 -16 57 41
1 177 41 -108 54 70
2 217 131 160 68 47
0 86 77 -16 57 41
1 177 41 -107 53 70
2 217 130 158 68 47
0 86 78 -14 57 40
0 86 77 -16 57 41
1 177 42 -108 54 67
0 86 77 -16 57 41
1 177 41 -109 53 70
2 217 131 158 68 48
0 86 77 -16 57 41
0 86 77 -16 57 41
1 177 44 -110 53 64
0 86 77 -16 57 41
1 177 41 -108 53 70
2 217 131 159 68 48
0 86 77 -16 57 41
0 86 77 -16 57 41
1 178 41 -106 52 70
0 86 77 -16 57 41
1 177 41 -106 53 70
2 217 131 158 68 48
0 86 77 -16 57 41
0 86 77 -16 57 41
1 177 41 -111 54 70
0 86 77 -14 57 41
1 177 43 -110 56 66
2 217 131 158 67 48
0 86 77 -16 57 41
0 86 77 -16 57 41
0 86 77 -16 57 41
1 177 41 -106 54 70
2 217 131 159 68 47
0 86 77 -16 57 41
0 86 77 -16 57 41
1 177 41 -110 54 70
0 86 77 -16 57 41
1 176 40 -111 56 69
2 217 131 157 67 48
0 86 77 -16 57 41
0 86 77 -16 57 41
1 174 50 -91 51 51
0 86 77 -16 57 41
1 176 41 -110 56 70
2 217 132 164 68 43
0 86 77 -14 57 40
0 86 77 -16 57 41
1 176 41 -108 55 70
2 217 131 158 67 46
0 86 77 -16 57 41
0 86 77 -16 57 41
1 176 42 -109 56 68
0 86 77 -16 57 41
1 177 42 -107 54 68
2 217 131 158 68 48
0 86 77 -16 57 41
0 86 77 -16 57 41
1 177 41 -106 53 70
0 87 77 -16 58 41
1 177 45 -112 54 62
2 217 130 160 68 47
0 86 77 -16 57 40
0 86 77 -16 57 41
1 176 41 -109 55 70
0 87 77 -16 58 41
1 177 41 -107 53 70
2 217 130 158 68 47
0 87 77 -16 58 40
0 87 77 -16 58 41
1 177 43 -113 54 66
2 217 130 158 68 47
0 86 77 -16 57 41
1 177 41 -109 54 70
2 217 130 160 68 47
0 86 77 -16 57 40
0 86 77 -16 57 41
1 177 41 -108 53 70
0 86 77 -16 57 41
1 177 44 -108 53 64
2 217 131 157 67 48
0 86 77 -16 57 41
0 86 77 -16 57 41
1 176 41 -110 55 69
0 86 77 -16 57 41
1 177 41 -109 54 70
2 217 130 159 67 47
0 86 77 -16 57 41
0 86 77 -16 57 41
1 177 41 -109 54 70
0 87 77 -16 58 41
1 176 41 -107 55 70
2 217 130 160 68 47
0 86 77 -16 57 41
0 86 77 -16 57 41
1 177 41 -110 53 70
0 86 77 -16 57 41
1 177 42 -108 54 67
2 217 130 159 68 47
0 86 77 -16 57 41
0 86 77 -16 57 41
1 176 41 -111 55 70
2 217 131 161 67 46
0 86 77 -16 57 41
1 177 42 -113 54 68
2 217 131 157 67 48
0 86 77 -16 57 41
0 86 77 -16 57 41
1 177 41 -107 54 70
2 217 131 158 67 48
0 86 77 -16 57 41
0 86 77 -16 57 41
1 177 41 -111 54 70
0 86 77 -16 57 41
1 177 41 -106 54 70
2 217 131 158 68 48
0 86 77 -16 57 41
0 86 77 -16 57 41
1 177 41 -107 54 69
0 86 77 -16 57 41
1 178 39 -163 38 9
2 217 131 159 68 48
0 86 77 -16 57 41
0 86 77 -16 57 41
1 177 41 -107 54 70
2 217 130 160 68 47
0 86 77 -16 57 41
0 86 77 -16 57 41
1 177 42 -110 54 68
2 217 131 158 68 48
0 86 77 -16 57 40
0 86 77 -16 57 41
1 177 41 -109 54 70
0 86 77 -16 57 41
1 177 42 -112 54 65
2 217 131 158 68 48
0 86 77 -16 57 41
0 86 77 -16 57 41
0 86 77 -16 57 41
1 177 41 -109 54 70
2 217 131 158 68 48
0 86 77 -16 57 41
0 86 77 -16 57 41
1 177 41 -105 53 70
0 86 77 -16 57 41
1 177 41 -107 54 70
2 217 130 160 68 47
0 86 77 -16 57 41
0 86 77 -16 57 41
1 177 41 -109 53 70
0 86 77 -16 57 41
1 176 41 -112 55 70
2 217 130 157 67 47
0 87 77 -16 58 41
0 87 77 -16 58 41
1 176 41 -111 55 70
0 86 77 -16 57 41
1 176 41 -108 55 70
2 217 131 158 68 48
0 86 77 -14 57 41
0 86 77 -16 57 41
1 177 41 -110 56 70
0 86 77 -16 57 41
1 176 45 -110 55 62
2 217 131 157 67 48
0 86 77 -16 57 41
0 86 77 -16 57 41
1 177 41 -112 55 70
0 86 77 -16 57 41
1 176 44 -112 55 64
2 217 131 159 68 48
0 86 77 -16 57 41
0 86 77 -16 57 41
1 178 41 -109 53 70
0 87 77 -16 58 41
1 177 41 -122 56 70
2 217 131 158 68 48
0 87 77 -16 58 41
0 87 77 -16 58 41
1 178 42 -109 54 68
0 87 77 -16 58 41
1 178 42 -111 53 68
2 217 131 159 67 47
0 87 77 -16 58 41
0 87 77 -16 59 41
1 177 41 -107 55 69
0 87 78 -15 59 42
1 177 41 -109 54 69
2 217 131 157 67 48
0 87 78 -15 59 42
0 87 78 -15 59 41
1 178 42 -105 54 70
2 217 131 160 67 47
0 87 78 -16 58 41
0 87 78 -15 59 41
1 178 42 -122 54 70
2 217 131 160 67 47
0 87 78 -15 59 41
0 87 78 -15 59 41
1 178 46 -111 54 60
0 87 78 -18 58 42
1 178 41 -110 54 69
2 218 131 158 68 48
0 87 78 -17 59 42
0 87 77 -15 59 41
1 178 42 -109 56 67
0 87 77 -15 59 41
1 178 41 -109 56 69
2 218 131 158 68 48
0 87 77 -16 58 41
0 87 77 -16 58 41
1 177 41 -109 55 70
0 86 77 -16 57 41
1 178 42 -110 54 67
2 217 131 158 68 47
0 86 77 -16 57 41
0 86 77 -16 57 41
0 86 77 -16 57 40
1 177 44 -110 53 63
2 217 131 160 68 47
0 87 77 -16 58 40
0 87 77 -16 58 41
0 87 77 -16 58 41
1 178 41 -107 54 70
2 217 131 158 67 48
0 87 77 -16 59 41
0 87 77 -14 58 41
1 179 41 -109 52 69
0 87 78 -15 59 42
1 178 43 -108 54 68
2 217 132 157 67 48
0 87 77 -14 58 41
0 87 77 -13 58 41
1 177 42 -107 56 70
0 87 78 -15 58 42
1 177 41 -112 56 69
2 217 131 157 67 47
0 87 77 -16 58 41
0 87 77 -16 58 41
0 87 77 -16 58 40
1 178 41 -109 53 70
2 217 131 158 67 48
0 87 77 -16 58 41
0 87 77 -16 58 41
1 177 41 -111 56 69
2 217 131 160 68 47
0 87 77 -16 58 41
0 87 77 -16 58 41
1 177 44 -111 55 64
2 217 131 157 67 48
0 87 77 -16 58 41
1 178 41 -110 54 69
2 217 131 157 67 48
0 87 78 -16 58 41
0 87 77 -16 58 41
0 87 78 -14 58 40
1 177 41 -112 56 69
2 217 132 160 68 46
0 87 77 -13 58 41
0 87 77 -16 58 41
1 176 45 -114 55 61
2 217 131 158 68 48
0 87 78 -16 58 42
0 87 77 -14 58 41
0 87 77 -16 58 41
1 176 41 -110 55 69
2 217 131 158 68 48
0 87 77 -14 58 41
0 87 77 -16 58 41
1 177 41 -110 56 69
0 87 78 -14 58 40
1 177 41 -109 56 69
2 217 131 160 68 47
0 87 78 -16 58 41
0 87 78 -16 58 40
1 177 42 -109 55 70
0 87 78 -16 58 41
1 177 44 -109 54 66
2 217 132 158 68 48
0 86 78 -16 57 41
0 86 78 -16 57 41
1 180 36 -105 40 17
2 217 132 157 67 48
0 87 78 -16 58 41
0 87 78 -16 58 41
1 178 42 -108 54 69
0 87 78 -16 58 41
1 177 42 -112 53 70
2 217 131 159 67 47
0 87 78 -16 58 40
0 87 78 -16 59 41
1 178 43 -112 54 68
2 217 131 157 67 47
0 87 78 -14 58 40
1 177 42 -107 55 70
2 217 131 160 67 47
0 87 78 -15 59 42
0 87 78 -14 58 40
1 177 42 -108 55 70
2 217 131 158 68 47
0 87 78 -16 58 41
0 87 78 -16 58 41
1 178 43 -111 54 68
0 87 78 -16 58 41
1 178 43 -112 54 68
2 218 132 158 68 48
0 87 78 -16 58 41
0 87 78 -15 59 41
0 87 78 -15 59 41
1 175 54 -113 49 46
2 217 132 158 67 48
0 87 78 -15 58 41
0 87 78 -14 59 40
1 178 42 -110 53 70
0 87 77 -16 59 41
1 177 41 -111 55 69
2 217 131 160 67 47
0 87 77 -13 59 41
0 87 77 -16 58 41
1 217 131 160 67 47
0 87 77 -13 59 41
1 177 42 -110 56 70
2 217 131 156 68 48
0 87 78 -15 58 42
0 87 78 -15 58 42
1 178 43 -110 54 66
2 217 131 159 68 48
0 87 77 -16 58 41
0 87 77 -13 58 41
1 177 42 -110 56 67
0 87 77 -13 58 41
1 178 41 -108 54 69
2 217 131 159 68 48
0 87 78 -15 58 42
0 87 77 -13 59 41
1 178 42 -106 54 70
2 217 131 157 67 47
0 87 77 -15 59 41
0 87 78 -18 58 42
1 177 41 -111 56 69
0 87 77 -16 58 41
1 178 41 -111 54 69
2 217 131 157 67 48
0 87 77 -13 58 41
0 87 77 -13 59 41
1 177 41 -107 55 69
0 87 78 -16 58 41
1 177 42 -112 56 70
2 217 131 157 67 47
0 87 78 -16 58 41
0 87 78 -16 58 41
1 179 42 -108 52 70
0 87 78 -14 58 40
1 176 47 -115 54 57
2 217 131 160 68 47
0 87 78 -14 58 40
0 86 77 -16 57 41
1 177 41 -111 54 69
0 87 77 -16 58 41
1 176 41 -112 55 68
2 217 131 157 67 48
0 87 77 -16 58 41
0 87 77 -16 58 41
1 178 41 -106 54 70
0 87 77 -16 58 41
1 178 41 -108 54 70
2 217 131 158 67 48
0 87 77 -16 58 41
0 87 77 -13 59 41
1 178 42 -109 54 70
0 87 78 -14 58 40
1 178 42 -111 53 70
2 217 131 159 69 47
0 87 78 -16 58 41
0 86 78 -16 57 41
1 177 43 -109 55 67
0 87 78 -16 58 40
1 178 42 -108 54 69
2 217 131 158 68 48
0 87 78 -16 58 40
0 87 77 -16 58 41
1 177 41 -109 55 69
2 217 131 158 67 48
0 87 77 -14 59 40
0 87 77 -16 59 41
1 177 40 -115 56 69
2 218 131 158 68 48
0 87 77 -16 58 41
0 87 77 -13 58 41
1 177 42 -110 56 67
2 217 132 159 67 46
0 87 78 -14 58 40
1 177 41 -110 56 69
2 217 131 157 67 47
0 87 78 -16 58 41
0 87 78 -14 58 40
1 178 42 -105 54 69
0 87 78 -16 58 41
1 178 42 -111 54 69
2 217 131 157 67 47
0 87 78 -16 58 41
1 177 42 -110 56 70
2 217 131 157 67 47
0 87 78 -16 59 41
0 87 78 -14 58 40
1 178 41 -112 54 69
2 217 131 158 67 47
0 87 77 -16 58 41
0 87 77 -13 58 41
1 178 42 -115 54 67
2 217 131 158 67 48
0 87 77 -16 58 41
0 87 77 -13 59 41
1 178 42 -109 54 70
0 87 78 -15 59 42
1 178 42 -110 54 70
2 217 131 158 67 47
0 87 78 -16 58 41
0 87 78 -16 58 41
1 178 43 -110 54 67
2 217 132 160 67 47
0 87 78 -16 58 41
0 87 78 -16 58 40
1 177 42 -110 55 69
2 217 133 160 68 45
0 87 77 -14 57 41
0 88 77 -16 58 41
1 177 42 -110 55 70
2 218 131 160 68 48
0 87 77 -16 59 41
0 87 77 -15 59 41
1 179 41 -112 54 69
2 217 131 157 67 47
0 87 77 -16 58 41
0 87 77 -15 59 41
1 178 41 -112 54 70
2 218 131 160 68 47
0 87 77 -16 58 41
0 87 77 -14 58 41
1 177 42 -111 56 70
2 217 132 159 68 47
0 86 78 -16 57 41
0 86 78 -16 57 41
1 177 42 -112 56 69
2 217 132 160 68 47
0 86 78 -16 57 41
0 86 78 -16 57 41
1 177 42 -112 56 69
2 217 132 158 68 48
0 86 78 -16 57 41
0 86 78 -16 57 41
1 176 50 -112 54 54
2 217 132 158 68 47
0 87 78 -16 58 41
0 87 78 -16 58 41
1 177 41 -109 56 69
2 217 131 158 67 48
0 87 78 -16 58 40
0 87 78 -14 58 40
1 177 42 -106 54 70
2 217 131 159 68 47
0 86 79 -14 57 40
0 86 78 -16 57 41
1 177 42 -111 55 69
2 217 132 158 68 48
0 86 78 -16 57 41
0 86 78 -16 57 41
1 177 42 -108 54 69
2 217 132 159 68 48
0 86 78 -14 57 41
0 86 79 -16 57 40
1 177 44 -110 54 66
0 86 78 -16 57 41
1 177 42 -109 54 69
2 217 132 160 68 47
0 86 78 -16 57 41
0 86 78 -16 57 41
1 176 42 -112 55 69
2 217 132 159 68 48
0 86 78 -16 57 41
0 87 78 -16 58 40
1 176 42 -109 55 70
2 217 131 160 68 47
0 87 78 -16 58 40
0 87 78 -14 58 40
1 177 42 -112 56 70
2 217 131 160 68 47
0 87 78 -16 58 40
0 87 78 -14 58 40
1 177 42 -112 55 70
2 217 131 160 68 47
0 86 78 -16 57 41
0 86 78 -16 57 41
1 177 42 -108 53 69
2 217 132 158 68 48
0 86 78 -16 57 41
0 86 79 -14 57 40
1 177 42 -112 54 69
2 217 132 160 68 47
0 86 79 -16 57 40
0 86 79 -14 57 40
1 176 42 -109 55 69
2 217 131 159 66 47
0 86 79 -16 57 40
0 86 79 -16 57 40
1 176 45 -114 55 64
2 217 132 160 68 47
0 86 78 -16 57 41
0 86 78 -16 57 41
1 177 42 -107 54 69
2 217 132 158 68 47
0 86 78 -16 57 41
1 177 42 -109 53 69
2 217 131 160 68 47
0 86 78 -16 57 41
0 86 78 -16 57 41
1 177 42 -111 54 69
2 217 132 158 68 48
0 86 78 -16 57 41
0 86 78 -16 57 41
1 176 42 -111 55 69
2 217 132 156 68 48
0 86 78 -16 57 41
0 86 78 -14 57 41
1 177 42 -108 54 69
2 217 132 158 67 48
0 86 79 -14 57 40
0 86 78 -14 57 41
1 176 42 -108 54 69
2 217 132 158 68 47
0 86 79 -14 57 40
0 86 78 -14 57 41
1 176 42 -109 55 69
0 86 78 -16 57 41
1 176 42 -109 55 69
2 217 132 159 68 48
0 86 78 -16 57 41
0 86 78 -16 57 41
1 177 42 -105 54 69
2 217 132 160 68 47
0 86 78 -16 57 41
0 86 78 -16 57 41
0 86 78 -14 57 41
1 176 42 -106 53 69
2 217 132 158 68 48
0 86 79 -14 57 40
0 86 79 -14 57 40
1 177 43 -105 54 70
2 217 132 160 68 46
0 86 79 -14 57 40
1 177 42 -108 54 69
2 217 132 159 68 47
0 86 79 -14 57 40
0 86 78 -14 57 41
1 177 42 -107 54 69
2 217 132 160 66 47
0 86 78 -16 57 41
0 86 78 -14 57 41
1 177 42 -109 53 69
0 86 78 -16 57 41
1 176 41 -111 55 67
2 217 132 158 68 47
0 86 78 -16 57 41
0 86 78 -16 57 41
1 178 42 -109 54 69
2 217 131 160 68 47
0 86 78 -16 57 41
1 177 42 -111 55 69
2 217 132 157 67 48
0 86 78 -16 57 41
0 86 78 -16 57 41
1 177 42 -112 55 69
0 86 78 -16 57 41
1 177 42 -110 56 68
2 217 132 160 68 47
0 86 78 -16 57 41
0 86 78 -16 57 41
1 176 43 -110 55 68
0 87 78 -16 58 41
1 177 43 -112 56 67
2 217 132 156 68 48
0 86 78 -16 57 41
0 86 78 -16 57 41
1 177 42 -109 55 69
0 87 78 -16 58 41
1 177 42 -112 56 69
2 217 132 158 67 48
0 87 78 -16 58 41
0 87 78 -16 58 41
1 177 42 -110 55 69
0 87 78 -16 58 41
1 177 43 -112 56 67
2 217 132 157 68 48
0 86 78 -16 57 41
0 86 78 -16 57 41
1 174 52 -90 49 49
0 86 78 -16 57 41
1 177 42 -111 55 69
2 217 132 158 68 48
0 87 78 -16 58 40
0 86 78 -16 57 41
1 177 43 -114 56 67
0 86 78 -16 57 41
1 179 42 -107 52 69
2 217 131 159 67 47
0 86 78 -16 57 40
0 86 78 -16 57 41
1 177 43 -111 56 68
2 217 132 159 68 48
0 86 78 -16 57 40
0 86 78 -16 57 41
1 177 44 -108 55 65
2 217 132 158 68 48
0 86 78 -16 57 41
0 87 78 -16 58 41
1 176 43 -109 55 70
2 217 132 160 68 47
0 86 78 -14 57 41
0 86 78 -16 57 41
1 177 42 -108 54 69
2 217 132 158 68 48
0 86 78 -14 57 41
0 87 78 -16 58 41
1 177 42 -112 56 69
2 217 132 158 68 48
0 87 78 -16 58 40
1 177 42 -108 55 69
2 217 131 158 67 47
0 86 77 -16 57 41
0 87 78 -14 58 40
0 86 78 -16 57 41
1 177 45 -115 56 64
2 217 132 158 68 48
0 86 78 -16 57 41
0 86 78 -16 57 41
1 178 42 -109 53 69
0 87 79 -14 58 40
1 177 43 -109 55 70
2 217 133 158 67 48
0 87 79 -14 58 40
0 86 79 -14 57 40
1 177 43 -108 55 69
0 86 79 -16 57 41
1 177 43 -113 56 69
2 217 133 158 68 46
0 86 79 -14 57 40
0 86 78 -14 57 41
1 177 43 -111 55 69
2 217 132 160 68 47
0 86 78 -14 57 41
0 87 79 -14 58 40
1 177 43 -112 55 69
2 217 132 160 68 47
0 86 78 -16 57 41
0 86 78 -16 57 41
1 178 42 -109 53 69
2 217 132 158 68 48
0 86 78 -16 57 41
1 177 42 -113 56 69
2 217 132 160 68 47
0 86 78 -16 57 41
0 86 78 -16 57 41
1 178 42 -108 54 69
2 217 132 157 67 47
0 86 78 -16 57 41
1 176 42 -109 55 69
2 217 132 158 67 47
0 86 78 -16 57 41
0 86 78 -14 57 41
1 177 42 -112 55 69
2 216 133 160 67 46
0 86 78 -14 57 41
0 86 78 -16 57 41
1 176 43 -107 55 70
0 86 78 -14 57 41
1 177 43 -111 56 69
0 87 79 -16 58 40
1 178 43 -106 53 69
2 217 133 157 67 45
0 85 77 -17 55 41
1 177 42 -106 55 68
2 216 131 158 67 48
0 86 77 -16 57 41
0 87 78 -16 57 41
0 86 79 -14 57 40
1 178 45 -112 54 66
2 217 132 158 66 47
0 86 78 -16 56 41
0 87 79 -14 58 40
1 178 46 -107 53 64
2 217 132 158 68 47
0 86 78 -14 57 40
0 86 78 -16 56 41
1 177 42 -110 54 69
2 217 132 158 68 47
0 87 79 -16 58 40
0 86 78 -16 57 40
1 216 132 158 67 48
0 87 78 -13 58 41
0 86 78 -16 57 41
1 177 42 -112 56 69
0 86 78 -16 57 41
1 176 42 -112 56 69
2 217 132 158 68 48
0 86 78 -14 57 41
0 86 78 -16 56 41
1 177 42 -110 54 69
2 217 132 158 68 48
0 86 78 -16 57 41
0 86 78 -16 57 41
0 86 78 -16 57 40
1 177 42 -109 54 69
2 217 132 158 68 48
0 87 78 -16 58 41
0 86 78 -16 57 41
1 177 42 -112 56 69
0 86 78 -16 57 40
1 176 42 -112 55 69
2 217 131 160 68 47
0 87 78 -16 58 41
0 86 78 -16 57 41
1 177 42 -107 56 69
0 87 78 -16 58 41
1 177 42 -111 55 67
2 217 132 158 67 47
0 86 78 -16 57 41
0 86 78 -16 57 41
1 177 42 -112 56 69
0 86 78 -16 57 41
1 177 42 -107 54 68
2 217 132 159 68 48
0 86 78 -16 57 41
0 86 78 -16 57 41
1 177 42 -112 56 69
0 86 78 -16 57 41
1 177 42 -109 56 69
2 217 132 159 68 48
0 86 78 -16 57 41
0 87 78 -16 58 40
1 177 43 -111 56 67
0 87 78 -16 58 40
1 177 42 -110 56 69
2 217 132 158 68 48
0 87 78 -14 58 40
0 87 77 -16 58 41
1 177 41 -108 56 69
0 87 77 -14 58 41
1 177 41 -113 56 69
2 217 131 160 68 47
0 87 77 -16 58 41
0 87 77 -18 58 41
1 177 40 -112 53 66
2 217 131 160 68 47
0 87 77 -16 58 41
0 87 78 -16 58 40
1 177 42 -108 55 70
0 87 78 -13 58 40
1 178 42 -109 54 69
2 217 131 160 68 47
0 87 78 -14 58 40
0 87 78 -16 58 40
1 177 42 -111 56 69
0 87 78 -16 58 41
1 177 42 -112 56 69
2 217 131 159 68 47
0 87 78 -16 58 40
0 87 78 -16 58 41
1 177 42 -110 55 68
0 87 78 -16 58 41
1 178 42 -113 54 69
2 217 132 160 68 46
0 87 78 -16 58 40
0 87 78 -16 58 41
1 177 43 -112 56 66
0 87 78 -14 58 40
1 177 44 163 34 11
2 217 132 160 68 47
0 86 78 -16 57 40
0 87 78 -16 58 40
1 177 43 -115 55 67
0 86 78 -14 57 40
1 177 42 -110 55 70
2 217 131 158 68 47
0 87 78 -14 58 40
0 86 78 -16 57 40
1 176 43 -112 55 68
0 86 78 -16 57 40
1 177 42 -108 55 69
2 216 132 158 67 48
0 86 78 -16 57 40
0 86 78 -16 57 41
1 177 42 -109 54 69
0 86 78 -16 57 41
1 177 42 -110 55 69
2 217 132 159 68 47
0 86 78 -16 57 41
0 86 78 -16 57 41
1 177 42 -108 56 69
0 86 78 -16 57 41
1 178 42 -110 54 69
2 217 132 158 67 48
0 87 78 -16 58 41
0 178 42 -108 54 69
0 87 78 -16 58 40
1 178 42 -111 54 69
2 217 132 158 68 48
0 87 78 -16 58 41
0 87 78 -16 58 40
1 177 42 -109 55 70
0 87 78 -16 58 40
1 177 44 -109 55 66
2 217 131 159 67 47
0 87 78 -14 58 40
0 87 78 -14 58 40
1 177 42 -109 55 70
0 87 78 -14 58 40
1 177 41 -111 55 69
2 217 132 156 68 48
0 87 78 -16 58 41
0 87 78 -14 58 40
1 178 42 -109 53 70
0 87 78 -16 58 41
1 177 42 -111 55 69
2 217 132 157 67 47
0 87 78 -16 58 41
0 87 78 -16 58 41
1 177 42 -111 56 69
2 217 132 158 68 47
0 87 79 -14 58 40
0 87 78 -16 58 41
1 177 43 -110 53 68
0 87 78 -16 58 41
1 177 42 -108 55 69
2 217 132 158 68 48
0 86 78 -16 57 41
0 86 78 -14 57 41
1 177 42 -109 56 69
0 86 78 -16 57 41
1 176 47 -111 55 59
0 86 79 -14 57 40
1 177 43 -110 55 68
0 86 78 -16 57 41
1 177 44 -108 54 65
2 217 132 160 67 47
0 86 78 -14 57 41
0 87 78 -16 58 40
1 178 42 -105 53 69
0 87 78 -16 58 41
1 177 43 -112 56 67
0 87 78 -16 58 40
1 177 43 -113 55 67
2 217 131 158 68 47
0 87 78 -16 58 41
1 178 43 -111 53 68
2 217 132 158 68 46
0 87 78 -16 58 41
0 87 78 -13 58 41
1 178 43 -109 52 70
2 217 132 160 67 47
0 86 78 -16 57 41
1 177 42 -112 56 68
2 217 132 158 67 48
0 86 78 -16 57 41
0 87 79 -14 58 40
1 177 43 -112 55 69
2 217 132 160 68 47
0 86 78 -16 57 41
0 86 78 -14 57 41
1 177 44 -111 55 65
2 217 132 158 68 48
0 86 78 -14 57 41
0 86 78 -16 57 41
1 177 43 -108 56 67
2 217 132 159 68 47
0 86 78 -16 57 41
0 86 78 -16 57 41
1 177 42 -111 56 69
2 217 132 158 68 47
0 86 78 -16 57 41
0 86 78 -16 57 41
1 178 42 -112 54 69
2 217 132 158 68 47
0 86 78 -16 57 41
0 86 78 -16 57 41
1 177 42 -112 56 69
2 217 132 157 67 47
0 86 78 -16 57 41
0 86 78 -16 57 41
1 178 42 -112 54 69
2 217 132 160 68 47
0 86 78 -14 57 41
0 86 78 -14 57 41
1 178 44 -108 53 65
2 217 132 158 68 47
0 86 78 -14 57 41
0 86 78 -16 57 41
1 177 42 -109 56 69
2 217 132 157 67 47
0 86 78 -16 57 41
0 86 78 -16 57 41
1 177 42 -111 55 69
2 217 132 159 67 48
0 86 78 -16 57 41
0 86 78 -16 57 41
1 177 42 -109 56 69
2 217 132 160 68 47
0 86 78 -16 57 40
0 86 78 -16 57 41
1 177 42 -112 56 69
2 217 132 157 66 48
0 86 78 -16 57 41
0 87 78 -16 58 41
1 177 42 -112 56 69
2 217 131 159 68 47
0 86 78 -16 57 41
0 86 78 -16 57 40
1 178 42 -111 54 69
2 217 131 159 67 47
0 86 77 -16 57 41
0 87 78 -15 58 41
0 87 78 -16 58 41
1 178 42 -107 54 68
2 217 132 160 67 47
0 86 78 -16 57 41
0 87 78 -16 58 41
1 177 42 -109 53 69
2 216 132 160 67 47
0 87 78 -14 58 40
0 177 41 -114 55 69
0 87 77 -14 58 41
1 177 41 -111 54 68
2 217 131 159 67 47
0 87 79 -14 58 40
0 86 78 -16 57 40
1 177 42 -106 54 69
0 86 77 -16 57 41
1 177 41 -109 53 69
2 217 131 160 68 48
0 87 78 -16 58 41
0 86 78 -14 57 40
1 177 43 -112 56 67
0 87 78 -14 58 40
1 177 44 -113 55 66
2 217 132 158 68 47
0 86 78 -16 57 41
0 86 78 -16 57 41
1 177 45 -111 56 63
2 217 132 157 67 47
0 87 78 -16 58 41
0 86 78 -16 57 41
1 178 42 -112 54 68
2 217 132 159 68 48
0 87 78 -18 58 40
1 177 42 -111 55 69
2 217 131 158 68 47
0 87 78 -18 58 40
0 86 78 -16 57 41
1 178 42 -108 54 69
0 87 78 -14 58 40
1 176 42 -110 55 69
2 217 132 158 68 47
0 87 78 -16 58 40
0 87 78 -16 58 40
1 178 42 -106 53 69
0 87 78 -14 58 40
1 177 42 -110 55 65
2 217 131 158 68 48
0 86 78 -16 57 41
0 86 78 -14 57 40
1 177 42 -109 55 69
0 87 78 -16 58 41
1 177 41 -112 55 67
2 217 132 157 67 47
0 87 78 -16 58 41
0 87 78 -16 58 41
1 177 42 -112 56 68
0 87 78 -14 58 40
1 177 42 -108 56 69
2 217 132 158 68 47
0 87 78 -16 58 41
0 87 78 -16 58 41
1 177 42 -109 56 69
0 87 78 -14 58 40
1 177 42 -107 55 69
2 217 131 159 67 47
0 87 78 -14 58 40
0 87 78 -16 58 41
0 87 78 -16 58 40
1 177 42 -109 54 70
2 217 131 159 67 47
0 87 78 -16 58 40
0 87 78 -16 58 41
1 177 42 -111 56 70
0 86 78 -14 57 40
1 177 42 -111 55 69
2 216 132 157 67 48
0 87 78 -16 58 41
0 86 78 -16 57 41
1 177 45 -113 56 64
0 86 78 -16 57 40
1 178 42 -106 52 68
2 217 132 158 68 48
0 86 78 -16 57 40
0 86 78 -16 57 41
1 178 43 -113 54 68
2 217 132 158 68 47
0 87 78 -14 58 40
0 87 78 -16 58 40
1 177 42 -114 56 70
2 217 132 158 68 46
0 87 78 -16 58 40
0 87 78 -16 58 40
1 176 46 -114 55 61
2 217 132 159 68 48
0 87 78 -14 58 40
0 86 78 -16 57 40
0 86 78 -16 57 41
1 177 42 -110 56 69
2 217 131 159 68 47
0 86 78 -16 57 41
0 86 78 -16 57 41
1 177 42 -111 55 68
0 86 78 -16 57 41
1 177 42 -111 56 69
2 216 132 160 67 47
0 86 78 -16 57 40
0 86 78 -16 57 41
1 176 42 -110 53 69
2 217 132 160 68 47
0 86 78 -16 57 41
0 86 78 -16 57 41
1 177 42 -110 56 69
2 217 132 160 68 47
0 86 78 -16 57 41
0 87 78 -16 58 40
1 178 42 -106 53 69
2 217 132 158 68 48
0 87 78 -16 58 40
0 87 78 -16 58 40
1 177 44 -111 55 66
2 217 132 159 68 47
0 87 78 -14 58 40
0 87 78 -16 58 41
1 177 42 -112 55 69
2 217 132 159 68 48
0 86 78 -16 57 41
0 86 78 -16 57 41
0 86 78 -16 57 41
1 177 43 -112 56 67
2 217 132 158 68 48
0 86 78 -16 57 41
0 86 78 -16 57 41
1 177 43 -114 56 67
0 86 78 -16 57 41
1 177 45 -114 55 63
2 217 132 157 67 48
0 86 78 -16 57 41
0 86 78 -16 57 41
1 177 43 -111 56 68
0 86 78 -16 57 41
1 177 43 -110 55 68
2 217 132 159 68 47
0 86 78 -16 57 41
0 86 78 -16 57 41
0 86 78 -16 57 41
1 177 42 -112 56 69
2 217 132 158 67 48
0 86 78 -16 57 41
0 86 78 -14 57 41
1 177 42 -112 56 69
0 86 78 -14 57 41
1 177 42 -111 56 69
2 217 132 158 68 47
0 86 78 -16 57 41
0 86 78 -16 57 41
0 86 78 -16 57 41
1 177 42 -109 56 69
2 216 132 160 67 47
0 86 78 -16 57 41
0 86 78 -16 57 41
1 176 49 -113 54 56
2 217 132 159 68 48
0 87 78 -16 58 41
1 177 43 -111 55 67
2 217 132 159 68 48
0 87 78 -16 58 40
0 87 78 -16 58 40
1 177 42 -112 56 69
0 87 78 -16 58 41
1 177 42 -107 55 68
2 217 131 156 67 47
0 86 78 -16 57 41
0 87 78 -16 58 40
0 87 78 -16 58 41
1 177 42 -112 55 69
2 217 131 160 67 47
0 86 78 -16 57 40
0 86 78 -16 57 41
1 178 45 -113 54 64
0 87 78 -16 58 41
1 177 44 -112 55 65
2 217 132 158 67 48
0 86 78 -16 57 41
0 86 78 -16 57 40
1 177 42 -111 56 69
2 217 132 159 68 48
0 86 78 -16 57 41
0 86 78 -16 57 41
1 177 42 -108 55 69
2 216 132 158 67 47
0 86 78 -16 57 41
0 86 78 -16 57 41
0 86 78 -16 57 41
1 178 42 -109 54 69
2 217 133 160 68 46
0 87 78 -16 58 41
0 86 78 -16 57 41
1 177 45 -114 56 63
0 87 78 -14 58 40
1 177 40 -109 56 66
2 217 133 159 67 46
0 86 78 -16 57 41
0 86 78 -16 57 40
1 177 42 -108 55 69
2 217 132 158 68 48
0 87 78 -15 58 40
0 86 78 -16 57 40
1 178 44 -115 54 65
0 86 78 -14 57 41
1 177 43 -109 55 70
2 217 132 160 68 47
0 86 78 -16 57 41
0 86 78 -16 57 41
1 178 44 169 34 10
2 217 132 162 67 46
0 87 78 -16 58 41
0 87 78 -16 58 41
1 177 42 -110 55 69
0 87 78 -16 58 40
1 178 42 -109 54 69
2 217 131 159 68 47
0 86 78 -14 57 40
0 86 78 -16 57 41
1 178 42 -111 54 69
2 217 131 158 68 47
0 86 78 -16 57 41
0 86 78 -16 57 40
1 177 42 -110 56 69
0 86 78 -14 57 41
1 177 43 -109 54 70
2 217 132 160 68 47
0 86 78 -14 57 41
0 86 78 -14 57 41
1 177 43 -113 56 70
2 217 132 160 68 47
0 86 78 -14 57 41
1 177 44 -112 56 66
2 217 132 160 68 47
0 86 78 -16 57 41
0 86 78 -16 57 41
1 177 42 -112 56 69
0 86 78 -16 57 41
1 178 42 -108 53 69
2 217 132 160 67 46
0 87 78 -16 58 41
0 87 78 -16 58 40
1 177 42 -109 55 69
0 87 78 -16 58 41
1 177 43 -109 55 68
2 217 132 158 68 48
0 87 78 -16 58 41
0 87 78 -16 58 41
1 177 42 -110 55 69
2 217 132 159 68 48
0 86 78 -16 57 40
0 86 77 -16 57 41
1 177 41 -112 56 69
0 87 78 -16 57 41
1 217 132 158 67 47
0 86 78 -16 57 41
0 86 78 -16 57 41
1 176 42 -110 55 69
0 86 78 -16 57 41
1 176 42 -111 55 69
2 217 131 158 68 47
0 87 78 -16 58 41
0 87 78 -14 58 40
1 177 42 -112 55 69
0 86 77 -16 57 41
1 179 38 -153 38 12
2 217 131 158 68 48
0 86 77 -16 57 41
0 87 78 -16 58 41
1 177 42 -110 55 69
2 217 132 158 68 48
0 86 78 -14 57 40
0 86 77 -14 57 41
1 176 41 -111 55 69
0 86 78 -16 57 41
1 177 43 -113 56 67
2 217 132 158 67 48
0 87 78 -18 58 40
0 86 78 -16 57 41
1 176 47 -114 55 60
2 217 132 159 68 48
0 87 78 -14 58 40
0 87 78 -14 58 40
1 177 42 -112 54 70
2 217 131 158 68 47
0 86 78 -16 57 40
1 177 42 -111 56 70
2 217 131 160 68 47
0 87 78 -14 58 40
0 87 78 -14 58 40
1 176 41 -109 55 69
0 87 78 -14 58 40
1 177 42 -107 55 70
2 217 132 159 68 48
0 86 78 -16 57 40
0 87 78 -16 58 41
1 177 44 -112 55 66
2 217 131 158 68 47
0 87 78 -14 58 40
0 87 78 -16 58 40
1 178 42 -109 51 70
2 217 131 160 68 47
0 87 78 -16 58 40
0 87 78 -16 58 40
1 177 42 -110 55 70
0 87 78 -14 58 40
1 178 40 -175 39 10
2 217 131 158 67 47
0 87 78 -14 58 40
0 87 78 -14 58 40
0 87 78 -14 58 40
1 177 42 -110 55 70
2 217 132 159 67 46
0 87 78 -14 58 40
0 87 78 -16 58 40
0 87 78 -13 58 40
1 177 45 -114 56 64
2 217 131 160 68 47
0 87 78 -14 58 40
0 87 78 -14 58 40
0 87 78 -16 58 41
1 177 43 -108 54 68
2 217 131 160 67 47
0 87 78 -16 58 40
0 87 78 -14 58 40
1 178 43 -109 54 68
0 87 78 -14 58 40
1 177 42 -112 55 70
2 217 132 158 67 48
0 87 78 -16 58 40
0 87 78 -16 58 40
1 177 42 -114 56 70
0 87 78 -16 58 40
1 177 42 -109 54 70
2 217 132 158 67 46
0 87 78 -16 58 40
0 87 78 -16 58 40
1 177 42 -109 54 70
0 87 78 -14 58 40
1 177 44 -111 54 66
2 217 131 160 67 47
0 87 78 -14 58 40
0 87 78 -16 58 41
1 176 46 -113 55 61
0 87 78 -16 58 40
1 177 42 -109 55 70
2 217 132 158 68 48
0 87 78 -14 58 40
0 87 78 -16 58 40
1 177 45 -112 53 64
0 87 78 -14 58 40
1 176 44 -115 55 65
2 217 131 160 68 47
0 87 78 -14 58 40
1 176 42 -109 55 70
2 217 132 160 68 46
0 87 78 -16 58 41
0 87 78 -14 58 40
1 177 42 -107 54 70
0 87 78 -16 58 40
1 177 42 -106 54 70
2 217 132 160 67 46
0 87 78 -16 58 40
0 86 78 -16 57 41
1 177 43 -113 56 68
2 217 132 158 68 48
0 87 78 -14 58 40
1 177 41 -111 55 69
2 217 132 158 68 48
0 87 78 -16 58 40
0 87 78 -16 58 40
1 178 44 -112 54 66
2 217 132 157 67 47
0 87 78 -14 58 40
0 87 78 -16 58 40
0 87 78 -14 58 40
1 177 42 -109 54 70
2 217 131 160 68 47
0 87 77 -14 58 41
1 177 41 -108 54 69
2 217 131 160 68 47
0 87 77 -16 58 41
0 87 77 -14 58 41
1 177 43 -112 56 65
2 217 131 158 68 47
0 87 77 -16 58 41
1 176 45 -114 55 62
2 217 131 157 67 47
0 87 78 -14 58 40
0 87 77 -16 58 41
1 177 41 -112 56 69
0 87 77 -16 58 41
1 178 42 -108 54 70
2 217 131 160 68 47
0 87 77 -16 58 41
0 87 78 -16 58 40
1 177 42 -112 55 70
2 217 131 159 66 47
0 87 78 -16 58 40
0 87 78 -14 58 40
1 177 42 -111 54 70
2 217 131 160 68 47
0 87 78 -11 58 39
0 86 78 -14 57 40
1 177 45 -112 54 63
2 217 131 158 68 47
0 87 78 -14 58 40
0 86 78 -16 57 39
1 177 42 -111 56 70
2 217 132 158 66 48
0 86 78 -14 57 40
0 86 78 -16 57 41
1 176 42 -109 55 69
2 217 132 159 68 48
0 86 78 -16 57 41
0 86 78 -16 57 41
1 177 42 -108 54 69
2 217 132 159 67 48
0 86 78 -16 57 41
0 86 78 -16 57 41
1 177 43 -108 55 68
2 217 132 158 68 47
0 86 78 -16 57 41
0 86 78 -16 57 40
1 177 44 -111 53 66
2 217 132 157 67 48
0 86 78 -16 57 41
0 87 78 -14 58 40
1 176 43 -110 55 67
2 217 132 158 68 48
0 87 78 -16 58 40
0 86 78 -14 57 40
1 176 42 -111 56 70
0 86 78 -14 57 40
1 177 42 -111 54 70
2 217 132 158 67 48
0 86 78 -16 57 40
0 86 78 -16 57 40
1 177 42 -107 53 70
2 217 131 159 68 47
0 86 78 -16 57 41
0 86 78 -16 57 41
1 176 42 -112 55 70
2 217 132 158 68 46
0 86 78 -16 57 40
0 86 78 -16 57 41
1 176 42 -112 55 70
2 217 131 160 68 47
0 86 78 -16 57 41
0 86 78 -16 57 41
1 176 42 -109 56 69
2 217 132 158 68 47
0 86 78 -16 57 40
0 86 78 -16 57 41
1 176 42 -110 55 69
2 217 132 158 68 47
0 86 78 -16 57 41
0 86 78 -16 57 41
1 177 42 -112 54 69
2 217 132 158 67 48
0 86 78 -16 57 41
0 86 78 -16 57 41
1 177 44 -109 54 66
2 217 132 158 68 48
0 86 78 -16 57 41
0 86 78 -16 56 41
1 177 42 -108 53 69
2 217 132 158 68 47
0 86 78 -16 57 41
0 86 78 -16 57 41
1 176 46 -115 55 61
2 217 132 158 68 48
0 86 78 -16 57 41
0 86 78 -14 57 41
1 176 42 -108 55 69
2 217 132 158 66 48
0 86 78 -16 57 41
0 86 78 -16 57 41
1 176 42 -109 55 69
0 86 78 -16 57 41
1 177 45 -113 54 64
2 216 131 158 67 47
0 86 79 -14 57 40
0 86 79 -14 57 40
1 177 42 -112 54 69
2 216 132 157 67 47
0 86 79 -16 57 40
1 177 42 -108 54 69
2 216 132 158 67 48
0 86 79 -14 57 40
0 86 79 -16 56 40
1 176 43 -107 55 69
2 216 132 158 67 48
0 86 79 -14 57 40
0 86 79 -16 57 41
1 177 46 -112 54 63
2 216 132 158 67 47
0 86 79 -16 57 40
0 86 79 -16 56 40
1 176 46 -115 56 63
2 216 132 158 67 47
0 86 79 -16 56 41
0 86 80 -14 56 40
1 177 47 -111 54 61
2 216 133 157 67 47
0 86 80 -14 56 40
0 86 80 -16 56 40
1 178 44 -109 52 69
2 217 133 160 67 47
0 86 80 -16 56 41
0 86 80 -17 55 41
1 177 44 -111 54 69
2 217 133 157 66 47
0 86 81 -17 55 41
0 86 82 -14 55 40
1 178 42 -140 36 13
0 86 82 -17 54 40
1 176 46 -110 55 69
2 216 134 157 67 47
0 86 82 -17 54 40
0 85 82 -14 55 40
1 176 46 -110 56 69
0 86 82 -15 54 40
1 177 46 -110 54 68
2 216 135 157 67 48
0 86 81 -18 54 40
0 86 81 -15 55 40
0 86 80 -15 54 40
1 176 44 -112 55 69
2 217 133 159 68 48
0 86 79 -14 56 40
0 86 78 -14 57 41
1 176 42 -111 55 69
2 216 132 158 67 47
0 86 78 -16 57 41
0 87 78 -14 58 40
1 177 41 -112 54 69
0 87 78 -16 58 40
1 176 42 -112 55 70
2 217 131 159 67 47
0 86 78 -16 57 41
0 86 79 -14 57 40
1 176 42 -123 55 69
0 85 79 -17 55 41
1 176 43 -112 55 69
2 216 134 159 67 46
0 86 80 -16 56 41
0 85 80 -17 55 41
1 177 45 -107 54 68
2 216 133 158 67 47
0 85 80 -17 55 41
0 85 80 -17 55 41
1 176 45 -110 55 69
0 85 80 -14 55 41
1 178 44 180 36 8
2 216 134 158 67 47
0 85 80 -14 55 41
0 86 80 -14 56 41
0 86 81 -14 56 40
1 177 45 174 36 6
2 216 133 160 67 47
0 85 80 -17 55 40
0 85 80 -16 55 40
1 177 43 -110 54 67
0 86 80 -16 56 40
1 177 43 -107 54 69
2 216 133 158 67 47
0 86 80 -14 56 40
0 85 80 -15 55 40
1 176 43 -112 55 69
0 86 80 -16 56 41
1 176 44 -108 55 69
2 216 133 159 67 47
0 86 81 -14 56 40
0 85 81 -16 55 40
1 176 45 -114 55 69
2 216 134 158 67 47
0 86 82 -15 55 40
0 86 82 -15 54 40
1 177 46 -109 54 68
0 86 82 -15 54 40
1 176 50 -114 55 61
2 216 135 159 66 47
0 86 82 -17 54 40
0 86 82 -17 54 40
1 177 46 -108 53 69
2 217 135 158 66 47
0 86 82 -15 54 40
1 176 46 -111 55 69
2 216 135 160 67 47
0 85 81 -17 55 41
0 86 81 -16 56 41
0 86 81 -17 55 40
1 174 54 -115 50 51
2 216 135 157 67 46
0 86 81 -17 55 40
0 86 81 -14 55 40
0 86 81 -15 55 40
1 177 45 -112 56 68
2 217 134 160 67 47
0 86 80 -17 55 41
0 86 80 -16 56 41
1 176 51 -117 54 55
2 216 133 157 67 47
0 86 80 -16 56 41
0 86 80 -14 56 41
1 177 46 -112 54 68
0 85 81 -15 55 40
1 176 45 -112 55 68
2 216 134 160 67 47
0 85 81 -15 55 40
0 85 81 -16 55 40
1 177 45 -108 54 69
2 216 135 158 67 46
0 85 81 -16 55 40
0 86 81 -16 56 40
1 176 48 -114 55 63
0 85 81 -14 55 40
1 176 45 -111 55 69
2 216 134 159 67 46
0 86 81 -14 56 40
0 86 80 -16 56 41
0 86 80 -16 56 40
1 178 44 -105 52 69
2 216 133 157 67 47
0 86 80 -16 57 40
0 86 80 -16 56 40
1 176 44 -112 55 69
2 216 133 158 67 47
0 86 80 -16 56 41
0 85 80 -14 55 41
1 177 44 -108 54 69
0 86 81 -14 56 40
1 177 45 -110 54 68
2 216 134 157 67 48
0 85 81 -16 55 40
0 86 81 -16 56 40
1 176 46 -113 55 67
0 86 81 -16 56 40
1 177 45 -108 53 69
2 216 134 157 67 47
0 86 81 -16 56 41
0 86 81 -17 54 41
1 177 46 -113 53 68
0 86 81 -16 56 40
1 176 46 -110 55 68
2 216 134 157 67 47
0 85 81 -16 55 40
0 85 81 -16 55 40
1 176 45 -112 55 69
0 85 81 -17 55 40
1 176 45 -111 55 69
2 216 134 157 67 47
0 85 81 -17 55 40
0 85 81 -17 55 40
1 176 45 -110 55 69
0 85 81 -17 55 40
1 176 45 -110 55 69
2 216 134 158 67 47
0 85 81 -17 55 40
0 85 82 -15 55 40
0 85 82 -17 55 40
1 177 46 -110 54 69
2 216 135 158 67 46
0 85 82 -17 55 40
0 85 82 -16 55 40
1 175 46 -112 55 69
0 85 82 -15 54 40
1 176 46 -108 54 69
2 216 135 160 67 47
0 85 82 -17 55 40
0 85 82 -17 54 40
1 176 46 -108 53 69
0 85 82 -17 55 40
1 176 51 -114 54 59
2 216 135 157 67 46
0 85 82 -15 55 40
0 85 82 -14 55 40
1 176 46 -111 53 68
0 85 81 -17 55 41
1 176 45 -107 54 67
2 216 134 159 67 47
0 85 81 -17 55 40
0 85 81 -17 55 40
1 176 45 -112 55 69
2 216 134 156 67 48
0 85 81 -16 55 40
0 85 81 -16 55 40
1 177 45 -109 54 69
2 216 133 158 67 47
0 85 81 -16 55 40
1 177 45 -107 54 69
2 216 134 160 67 46
0 85 81 -16 55 40
0 85 81 -17 55 40
0 85 81 -17 55 40
1 176 45 -108 53 69
2 216 134 160 67 47
0 85 81 -17 55 40
0 85 81 -17 55 41
0 85 81 -16 55 41
1 174 54 -111 49 52
2 216 134 158 67 47
0 85 81 -17 55 40
0 85 81 -16 55 40
0 85 81 -17 55 41
1 176 45 -112 54 69
2 216 134 158 67 47
0 85 81 -17 55 41
0 85 82 -14 55 40
1 176 46 -111 54 68
2 216 135 158 67 46
0 85 82 -16 55 40
1 176 54 -129 51 53
2 216 134 157 67 47
0 85 82 -15 54 40
0 85 82 -17 54 40
1 175 46 -112 55 69
0 85 82 -17 54 40
1 176 47 -113 53 68
2 215 135 158 67 47
0 85 82 -17 54 41
0 85 82 -16 55 40
1 176 47 -107 54 68
0 85 82 -17 54 40
1 177 52 -111 52 57
2 216 135 160 68 46
0 85 82 -17 55 40
0 85 82 -14 55 40
1 177 46 -109 52 68
0 85 81 -16 55 41
1 176 46 -110 53 68
2 216 134 158 67 48
0 85 81 -17 55 41
0 85 81 -17 55 40
1 176 45 -107 54 69
0 85 81 -15 54 40
1 176 45 -109 54 68
2 216 133 157 67 47
0 85 81 -15 55 40
0 85 81 -15 55 40
1 176 45 -109 54 68
2 216 133 157 67 47
0 85 81 -16 55 40
1 176 46 -113 54 66
2 216 133 160 67 47
0 85 81 -17 55 40
0 85 82 -14 55 40
1 176 45 -107 53 69
2 216 135 158 67 47
0 85 82 -17 54 40
0 85 83 -17 55 40
1 176 47 -108 53 68
2 216 135 158 68 47
0 85 83 -17 54 40
0 85 84 -15 53 40
1 176 48 -108 54 68
2 216 136 158 67 47
0 86 84 -15 54 40
0 86 84 -17 54 40
1 176 48 -107 54 69
0 86 84 -15 54 40
1 176 48 -109 53 68
2 216 137 159 67 46
0 86 83 -16 54 40
0 86 83 -17 54 40
1 177 48 -110 53 68
0 86 83 -15 54 40
1 176 47 -109 54 69
2 216 135 157 67 47
0 86 82 -17 54 40
0 85 81 -14 55 40
1 177 45 -110 54 69
2 216 133 158 67 47
0 86 80 -16 56 40
0 86 80 -14 56 40
1 177 45 -111 54 68
0 86 80 -16 57 40
1 176 44 -110 56 70
2 217 133 158 68 48
0 86 80 -16 57 40
0 86 80 -16 57 41
1 177 44 -112 54 69
2 217 135 160 66 45
0 86 81 -16 56 41
1 178 45 -107 52 69
2 216 134 156 67 47
0 86 82 -15 54 40
0 86 82 -17 54 41
1 177 46 -109 53 69
2 216 135 157 67 47
0 86 83 -17 54 40
1 177 47 -111 54 69
2 216 135 157 67 47
0 85 82 -18 53 41
0 86 82 -17 54 40
0 85 81 -16 55 40
1 177 46 -108 53 68
2 216 134 157 67 46
0 85 80 -17 54 41
0 85 80 -17 55 41
0 86 81 -14 56 40
1 177 45 -107 53 68
2 216 133 158 67 47
0 86 80 -14 56 40
0 87 77 -14 58 40
1 178 41 -107 54 70
2 218 130 160 68 47
0 87 77 -16 58 41
0 86 77 -13 58 41
1 175 40 -110 55 70
2 217 130 158 68 48
0 86 78 -16 57 41
0 86 78 -14 57 40
1 176 41 -110 55 69
2 217 132 158 68 46
0 86 79 -14 57 41
0 85 81 -14 55 40
1 176 50 -108 51 57
2 216 133 160 67 47
0 85 81 -17 54 41
0 85 81 -15 54 39
1 175 45 -105 53 68
2 216 132 160 67 47
0 85 82 -17 54 40
0 84 82 -17 53 40
1 175 45 -107 54 69
2 216 133 159 67 46
0 85 83 -15 54 40
0 84 83 -15 53 40
1 161 53 -83 24 36
2 217 134 157 66 46
0 84 83 -15 53 40
0 84 83 -15 53 40
1 176 46 -109 51 68
0 84 83 -15 53 40
1 176 46 -109 52 68
2 216 133 158 67 47
0 85 82 -14 54 39
0 84 82 -15 53 40
1 175 45 -108 54 68
2 216 133 160 67 46
0 85 81 -15 54 39
0 85 81 -15 54 40
1 216 132 159 67 47
0 85 80 -15 55 39
0 85 80 -17 55 40
1 176 43 -107 54 69
2 216 132 157 67 47
0 85 80 -17 55 41
0 85 80 -17 54 40
1 176 43 -108 54 69
2 216 132 157 67 47
0 85 80 -14 56 40
0 84 80 -15 55 40
1 175 43 -109 55 69
2 216 132 159 68 47
0 85 80 -14 56 40
1 174 43 -110 55 69
2 216 131 158 67 47
0 85 79 -14 56 39
0 85 79 -14 56 39
1 176 45 -110 54 64
2 216 131 158 68 47
0 85 79 -16 56 41
0 85 80 -14 57 40
1 176 44 -110 54 66
2 216 131 160 67 47
0 85 80 -14 56 40
0 85 80 -16 56 40
1 176 43 -107 54 69
2 216 132 159 67 47
0 84 80 -14 55 39
0 85 81 -17 54 40
1 175 44 -107 53 69
2 216 134 160 67 46
0 85 82 -15 54 40
0 85 82 -17 54 40
1 175 46 -109 54 68
2 216 134 159 68 47
0 84 83 -15 53 40
0 84 83 -15 53 40
1 175 49 -109 53 64
2 216 135 160 66 46
0 84 83 -15 53 40
0 85 82 -15 54 40
1 175 45 -109 53 69
0 85 82 -15 54 40
1 176 45 -105 51 68
2 216 133 158 67 48
0 85 81 -15 54 39
0 85 81 -17 54 41
1 175 44 -106 53 69
0 85 82 -14 54 40
1 173 57 -117 49 44
2 216 133 160 68 47
0 85 82 -15 54 40
0 85 82 -17 54 40
0 84 82 -18 53 40
1 175 45 -110 53 69
2 216 134 158 67 46
0 84 83 -18 53 40
0 84 83 -15 53 40
1 175 49 -111 54 64
2 216 134 160 68 47
0 84 83 -18 53 40
1 175 46 -111 54 69
2 216 134 160 68 47
0 85 83 -15 54 40
0 85 83 -15 54 40
1 175 46 -107 52 69
0 85 83 -17 54 40
1 176 47 -108 52 68
2 217 135 157 66 46
0 85 83 -15 54 40
0 85 83 -15 54 40
1 175 47 -108 54 68
0 85 83 -15 55 40
1 175 47 -109 55 68
2 216 135 160 68 47
0 85 83 -17 54 40
0 86 83 -17 54 40
1 176 47 -109 53 69
0 86 84 -15 54 40
1 176 47 -108 54 69
2 216 136 157 67 46
0 86 84 -17 55 40
0 86 83 -17 55 41
1 176 48 -109 55 68
0 86 84 -15 55 40
1 176 48 -108 55 68
2 216 137 160 67 46
0 86 83 -16 55 41
0 86 83 -17 55 41
1 176 48 -109 54 68
0 86 83 -17 55 41
1 177 48 -112 54 68
2 216 137 159 67 46
0 86 83 -17 55 41
0 86 83 -16 54 40
1 177 47 -107 54 69
0 86 83 -17 54 40
1 176 47 -109 53 69
2 216 135 159 67 47
0 85 83 -14 55 40
0 85 82 -17 54 40
1 176 46 -108 54 68
0 85 82 -15 54 40
1 175 46 -108 54 68
2 216 133 159 67 47
0 85 82 -15 54 40
0 84 82 -15 53 40
1 175 45 -108 53 68
0 85 82 -14 54 40
1 176 44 -106 52 69
2 216 133 159 67 46
0 84 82 -15 53 40
0 85 82 -15 54 40
1 175 45 -110 53 68
2 216 133 158 67 47
0 85 82 -15 54 40
0 85 82 -15 54 40
1 176 45 -108 52 69
2 216 133 159 67 47
0 85 82 -15 54 40
1 175 45 -110 53 68
2 216 134 159 67 46
0 85 82 -15 54 40
0 85 82 -15 54 40
1 176 45 -107 54 68
2 217 133 158 68 47
0 85 82 -14 55 40
0 85 82 -16 55 40
1 176 45 -108 53 69
0 85 82 -15 55 40
1 176 45 -107 53 69
2 216 133 160 67 47
0 85 82 -17 55 40
0 85 82 -16 55 40
1 177 45 -108 52 69
2 216 134 158 67 48
0 86 82 -16 56 40
0 86 82 -16 56 40
0 86 82 -17 54 40
1 176 46 -107 53 68
2 217 134 160 68 47
0 86 82 -17 54 41
0 86 83 -14 55 40
1 179 41 -125 38 10
2 217 135 160 67 47
0 86 83 -11 55 39
0 86 83 -16 55 40
1 177 47 -112 54 68
2 217 136 158 68 46
0 86 83 -17 54 40
0 86 83 -17 54 40
1 177 48 -111 54 67
2 216 135 160 67 47
0 86 83 -17 54 41
0 86 83 -15 54 39
1 176 47 -108 53 69
2 217 135 158 66 47
0 86 83 -17 54 41
0 85 82 -14 54 39
1 176 46 -108 53 68
2 216 134 157 67 46
0 85 82 -15 54 39
0 85 82 -15 54 39
1 216 134 157 67 46
0 85 83 -14 54 40
1 176 45 -106 52 69
2 216 133 158 67 47
0 85 82 -15 54 39
0 85 83 -15 54 40
1 177 46 -107 50 67
0 85 83 -15 54 40
1 175 46 -108 53 68
2 216 133 157 67 47
0 85 83 -17 54 40
0 85 83 -14 54 40
1 175 46 -107 54 69
2 217 134 159 66 47
0 85 83 -17 53 40
1 175 47 -108 53 68
2 216 135 159 67 46
0 86 84 -15 54 40
0 86 85 -14 54 40
1 176 49 -111 54 68
2 216 137 158 67 46
0 86 85 -17 54 40
0 86 85 -15 55 40
1 176 49 -111 55 68
0 86 84 -16 55 41
1 178 49 -106 51 68
2 216 137 158 67 46
0 86 85 -15 55 40
0 86 84 -16 55 41
1 177 49 -109 52 68
2 216 137 160 67 46
0 86 84 -17 55 41
0 86 84 -16 55 40
1 176 48 -110 55 69
2 217 136 160 68 46
0 86 84 -15 54 40
0 86 84 -17 54 40
1 176 47 -109 52 68
0 85 83 -14 54 40
1 217 135 160 66 46
0 85 83 -14 54 40
0 85 83 -15 54 40
1 175 46 -110 53 68
0 84 83 -15 53 40
1 175 46 -107 53 68
2 216 134 160 67 47
0 84 83 -18 53 40
0 84 84 -15 53 40
1 175 47 -107 53 68
0 85 84 -17 54 40
1 175 48 -109 53 68
2 216 135 159 67 47
0 85 84 -17 54 40
0 85 84 -17 54 40
1 175 48 -108 53 68
0 85 84 -17 54 40
1 175 48 -109 54 68
2 216 135 159 66 47
0 85 84 -15 54 40
0 85 83 -17 54 40
1 175 47 -108 53 67
0 85 83 -17 54 40
1 176 47 -108 52 68
2 216 135 159 67 46
0 85 82 -16 55 40
0 85 82 -16 55 41
1 175 46 -112 55 68
0 85 82 -15 55 40
1 177 45 -107 52 69
2 217 133 157 66 47
0 85 82 -15 55 40
0 85 81 -16 55 41
1 176 45 -107 54 68
0 85 81 -16 55 41
1 176 48 -111 54 62
2 216 133 159 67 47
0 85 81 -17 55 41
0 85 81 -17 55 41
1 176 45 -107 54 69
0 86 82 -14 56 40
1 175 45 -111 55 69
2 216 134 160 67 47
0 85 82 -16 55 41
0 86 82 -18 54 41
1 176 48 -115 54 66
0 86 83 -14 55 40
1 176 47 -108 54 68
2 216 135 159 67 47
0 86 83 -17 54 41
0 86 83 -17 54 40
1 176 47 -110 53 69
0 86 84 -15 54 40
1 177 47 -109 52 69
2 216 135 158 67 47
0 85 83 -18 53 41
0 85 83 -18 53 40
1 176 47 -113 53 69
0 86 83 -16 54 41
1 176 47 -106 53 68
2 216 135 156 67 48
0 86 83 -17 54 40
0 86 83 -15 55 40
1 176 47 -106 53 68
0 86 82 -15 54 40
1 177 46 -105 53 68
2 217 134 158 68 47
0 86 82 -15 55 40
0 86 81 -14 55 40
1 177 45 -109 54 68
0 86 80 -16 56 41
1 176 45 -109 55 68
2 217 132 160 67 47
0 86 80 -14 57 40
0 87 79 -16 58 41
1 177 47 -114 55 62
0 86 79 -16 57 41
1 177 43 -107 56 69
2 217 132 160 68 47
0 86 80 -16 57 42
0 87 82 -19 56 42
1 177 45 -111 55 69
2 217 134 157 67 47
0 87 83 -16 56 42
0 87 83 -17 55 41
0 86 84 -17 55 41
1 176 49 -112 55 68
2 216 137 160 67 47
0 86 85 -17 54 40
0 85 86 -15 53 39
1 175 51 -108 54 68
2 216 139 160 66 46
0 85 86 -15 52 39
0 85 86 -15 52 39
1 175 51 -111 54 67
0 85 86 -18 52 40
1 175 51 -107 54 67
2 215 138 158 66 47
0 85 86 -18 52 40
0 85 85 -18 52 39
1 176 50 -111 53 67
0 85 85 -17 53 40
1 176 50 -108 54 67
2 215 138 157 67 46
0 85 85 -18 53 40
0 85 85 -16 54 40
1 177 49 -105 50 68
2 216 136 158 66 47
0 85 84 -16 54 40
1 176 48 -110 52 67
2 216 136 158 67 46
0 85 83 -17 54 40
0 85 83 -15 54 40
1 176 47 -109 53 68
2 216 135 160 67 47
0 84 83 -17 53 40
1 176 47 -112 53 68
2 216 136 158 66 46
0 84 84 -15 53 40
0 84 84 -15 53 40
1 176 48 -108 52 68
2 215 136 159 67 46
0 84 84 -17 53 40
1 175 48 -108 53 68
2 215 136 160 67 45
0 82 84 -19 48 40
0 177 49 -104 50 68
1 217 133 156 61 39
0 179 49 -101 45 65
0 87 96 -68 7 9
0 224 146 160 43 28
0 89 90 -94 11 15
1 221 145 158 49 30
0 221 141 164 50 35
0 220 141 161 51 36
0 221 141 161 51 35
0 221 143 164 51 31
0 225 141 160 44 36
0 89 88 0 11 17
1 223 140 161 45 36
0 89 89 66 12 14
0 87 87 -82 8 15
0 221 141 161 52 38
0 222 141 159 50 38
0 221 128 154 55 28
0 90 83 -3 64 37
1 219 132 156 59 37
0 90 86 -16 63 43
1 218 136 155 62 47
0 90 89 -22 63 49
0 89 89 -22 63 49
1 215 137 160 67 46
0 90 90 -25 63 50
1 215 137 157 67 47
0 90 90 -23 64 50
0 90 90 -23 64 50
1 215 137 160 67 47
0 90 90 -24 63 50
1 215 137 157 67 47
0 90 90 -24 63 50
0 90 90 -22 64 49
1 215 138 158 67 46
0 89 90 -24 63 50
0 90 90 -23 64 50
1 215 137 158 67 47
0 90 90 -21 63 49
0 90 90 -22 64 49
1 215 137 157 67 47
0 90 90 -22 63 49
0 90 90 -22 64 49
1 215 138 160 68 46
0 90 90 -22 64 49
0 90 90 -21 64 49
1 215 138 160 67 46
0 90 91 -23 64 50
0 90 91 -22 63 49
1 215 138 160 67 47
0 90 91 -22 63 49
1 215 139 160 67 46
0 90 91 -22 63 49
0 90 92 -24 63 50
1 162 50 -98 27 64
2 215 142 163 67 40
0 90 91 -24 63 49
0 90 91 -23 63 50
1 165 49 -106 32 65
2 216 144 -178 66 33
0 90 90 -22 63 49
1 166 49 -106 33 65
0 90 90 -22 63 49
0 90 90 -22 63 49
0 90 90 -22 63 49
1 168 49 -107 40 67
2 218 145 -171 65 29
0 90 90 -22 63 49
1 169 50 -103 41 68
2 220 146 -167 62 28
0 90 90 -22 63 49
1 170 50 -106 44 68
0 90 90 -22 63 49
1 171 50 -107 47 68
2 221 148 -162 59 34
0 90 90 -24 63 49
0 90 91 -24 63 50
1 175 50 -112 54 67
2 221 149 -167 60 35
0 90 90 -22 63 49
0 90 90 -22 63 49
1 175 50 -111 53 67
0 90 91 -23 63 50
1 174 56 -116 52 55
2 220 152 178 61 29
0 90 91 -24 63 50
0 90 91 -23 63 50
1 175 52 -112 53 64
0 90 90 -22 63 49
1 175 50 -113 54 67
2 221 151 174 60 29
0 90 90 -24 63 49
0 90 90 -24 63 49
1 175 50 -115 54 68
0 90 90 -22 63 49
1 175 50 -112 54 68
2 220 151 174 59 30
0 90 90 -22 63 49
0 90 91 -24 63 50
1 175 50 -112 54 67
2 220 151 174 59 32
0 90 91 -23 63 50
0 90 91 -24 63 50
1 175 50 -112 54 67
0 90 91 -23 63 50
1 175 50 -113 54 67
2 221 150 -174 60 33
0 90 91 -24 63 50
0 90 91 -23 63 50
1 175 50 -112 54 67
2 220 149 -174 59 33
0 90 90 -22 63 49
0 90 90 -22 63 49
1 175 50 -111 53 67
2 220 149 -172 59 35
0 90 91 -23 63 50
0 90 91 -23 63 50
1 175 50 -111 53 67
2 220 149 -170 59 36
0 90 91 -25 63 50
0 90 91 -23 63 50
1 175 51 -111 53 66
2 220 148 -172 61 35
0 90 91 -24 63 49
0 90 91 -24 63 50
1 175 50 -113 54 67
2 220 148 -172 61 35
0 90 90 -22 63 49
0 90 91 -26 63 50
1 175 50 -109 54 67
0 90 91 -23 63 50
0 90 91 -24 63 50
1 175 50 -109 54 67
2 221 148 -172 60 35
0 90 91 -22 63 50
0 90 91 -23 63 50
1 175 50 -107 54 67
2 221 149 -170 60 36
0 90 91 -21 63 49
0 90 91 -24 63 50
1 175 53 -112 54 62
2 221 149 -170 60 36
0 90 91 -24 63 50
0 90 91 -21 63 50
1 175 50 -111 54 67
2 221 148 -172 60 35
0 90 91 -23 63 50
0 90 90 -21 63 49
1 175 50 -109 53 67
2 220 149 -170 61 36
0 90 91 -24 63 50
0 90 91 -23 63 50
1 175 50 -110 54 67
2 220 149 -170 61 36
0 90 91 -23 63 50
0 90 91 -23 63 50
1 175 50 -111 54 67
2 221 149 -170 60 36
0 90 91 -24 63 50
0 90 90 -22 63 49
1 175 50 -112 53 66
2 221 148 -172 60 35
0 90 90 -24 63 49
0 90 90 -24 63 50
1 176 50 -108 53 68
2 221 148 -172 60 35
0 90 90 -24 63 50
1 176 50 -109 54 68
2 221 148 -172 60 35
0 90 89 -24 63 51
0 90 89 -24 63 50
1 176 49 -110 54 68
2 221 148 -170 60 36
0 91 89 -23 64 50
1 176 49 -112 55 68
2 221 147 -172 61 35
0 91 88 -23 64 50
0 91 88 -23 64 50
1 176 50 -114 55 63
2 221 146 -172 61 35
0 90 87 -24 63 50
0 91 87 -24 64 50
1 177 47 -111 54 68
2 221 146 -172 61 35
0 91 87 -23 64 50
0 91 87 -23 64 50
1 177 47 -109 54 68
2 222 146 -172 60 35
0 91 87 -23 64 50
0 91 87 -23 64 51
1 177 47 -109 54 69
2 222 147 -172 60 35
0 91 88 -23 64 50
0 91 89 -24 63 50
1 177 49 -110 53 68
2 222 148 -172 60 35
0 91 90 -26 63 50
0 91 90 -23 64 50
1 176 50 -110 54 68
2 221 149 -170 60 36
0 91 90 -23 64 50
1 176 50 -110 53 68
2 220 149 -172 61 35
0 91 90 -22 63 50
0 91 90 -24 63 50
1 177 50 -110 54 67
2 221 148 -172 59 35
0 91 89 -22 63 49
1 177 50 -111 54 68
2 221 149 -170 61 36
0 91 89 -24 63 50
0 91 88 -23 64 50
1 177 48 -110 54 68
2 222 147 -172 60 35
0 91 87 -22 64 50
0 90 86 -23 64 50
1 176 46 -112 55 68
0 90 86 -22 64 50
1 176 48 -113 54 62
2 221 144 -172 61 35
0 90 86 -22 64 50
0 90 86 -23 64 50
1 176 45 -110 54 69
0 90 86 -23 64 51
1 176 45 -112 54 69
2 221 145 -172 61 35
0 91 87 -23 64 50
0 91 88 -23 64 50
1 176 47 -109 55 69
0 91 89 -21 64 50
1 178 48 180 37 5
2 221 148 -174 61 34
0 91 89 -23 64 51
0 91 90 -23 64 50
1 176 49 -107 53 67
0 91 89 -23 64 51
1 176 49 -111 53 67
2 221 148 -172 60 35
0 91 89 -23 64 50
0 91 89 -23 64 50
1 176 49 -115 54 68
0 91 88 -23 64 50
1 177 48 -112 54 68
2 221 147 -170 61 36
0 91 88 -22 64 50
0 90 87 -22 63 49
1 176 47 -107 53 68
2 221 146 -172 61 35
0 90 87 -24 63 50
1 176 47 -112 54 68
2 221 146 -172 61 35
0 90 88 -22 63 50
0 90 88 -24 63 51
1 176 48 -111 53 68
2 221 147 -172 60 35
0 91 89 -23 64 50
0 91 89 -23 64 51
1 176 49 -110 54 68
0 91 90 -23 64 50
1 176 50 -112 54 68
2 221 148 -172 60 35
0 91 90 -23 64 50
0 91 90 -23 64 50
1 176 50 -110 54 68
0 90 89 -24 63 51
1 176 49 -110 54 67
0 91 89 -23 64 50
0 91 88 -21 64 50
1 176 48 -114 55 68
0 91 87 -23 64 50
0 91 87 -23 64 50
1 176 47 -113 55 68
0 91 87 -24 64 50
1 176 46 -113 55 69
0 90 87 -24 63 51
0 91 88 -22 64 50
1 176 47 -109 54 69
0 90 88 -24 63 50
0 91 89 -22 64 50
1 175 56 -118 53 54
0 91 89 -23 64 50
1 176 49 -112 53 68
0 90 89 -24 63 50
0 91 89 -23 64 50
1 176 49 -111 54 68
0 91 89 -23 64 50
1 176 49 -112 53 68
0 90 89 -24 63 50
0 91 89 -23 64 50
0 91 89 -23 64 50
1 176 49 -113 55 68
0 91 89 -22 64 50
0 91 88 -22 64 49
1 176 49 -115 55 65
0 91 88 -23 64 51
0 91 88 -23 64 51
1 176 48 -113 55 68
0 91 88 -23 64 51
0 91 89 -23 64 50
1 177 48 -112 54 69
0 91 89 -22 64 50
1 177 48 -113 54 67
0 91 89 -22 64 50
0 91 89 -23 64 50
1 176 49 -112 54 68
0 91 89 -23 64 50
1 176 49 -113 54 68
0 91 89 -23 64 50
0 91 89 -23 64 50
1 176 55 -118 53 55
0 90 89 -24 63 50
0 90 89 -24 63 50
1 176 49 -112 54 68
0 91 89 -23 64 50
0 91 88 -23 64 51
1 176 47 -113 55 67
0 91 88 -23 64 51
0 91 88 -23 64 50
1 176 48 -109 55 68
0 91 88 -23 64 50
1 172 43 158 18 12
0 90 88 -24 63 50
0 91 88 -22 64 50
1 176 48 -109 54 68
0 90 88 -24 63 50
1 175 48 -111 53 68
0 91 88 -24 64 50
0 91 89 -22 64 50
0 91 89 -22 64 50
1 176 48 -111 55 69
0 91 89 -22 64 50
0 91 89 -22 64 50
1 176 48 -112 55 67
0 91 89 -22 64 50
1 174 55 -114 49 53
0 91 88 -23 64 50
0 91 88 -23 64 50
0 91 88 -22 64 49
1 177 48 -109 54 68
0 91 88 -23 64 50
0 91 88 -24 64 50
1 176 48 -110 55 68
0 91 88 -23 64 50
1 177 47 -109 54 67
0 91 88 -20 64 49
0 91 88 -23 64 50
1 177 51 -115 54 61
0 91 88 -23 64 50
1 177 48 -108 54 68
0 91 88 -23 64 50
0 91 88 -23 64 50
1 177 48 -109 53 68
0 91 88 -23 64 50
1 177 48 -110 53 68
0 91 88 -22 64 50
0 91 87 -23 64 50
1 176 49 -109 52 63
0 91 88 -22 64 50
0 91 87 -23 64 51
1 177 47 -108 54 68
0 91 88 -22 64 50
1 176 48 -111 55 67
0 91 88 -22 64 49
0 91 88 -23 64 50
1 177 47 -109 53 67
2 209 127 164 54 39
0 91 88 -23 64 50
0 91 88 -23 64 50
1 176 51 -114 55 62
0 91 88 -22 64 50
1 176 48 -109 55 68
2 215 130 160 67 46
0 91 88 -22 64 50
0 91 88 -22 64 50
1 177 47 -112 54 68
0 91 87 -23 64 50
1 176 48 -110 55 66
2 215 129 160 67 47
0 91 87 -23 64 50
0 91 87 -22 64 50
1 177 47 -108 53 68
2 215 129 160 67 47
0 91 87 -22 64 50
1 176 47 -110 55 68
2 215 129 162 67 46
0 91 87 -22 64 50
0 91 87 -24 64 50
1 177 46 -109 53 69
2 215 129 160 68 47
0 91 87 -23 64 50
1 176 46 -111 55 69
2 215 129 162 67 46
0 91 87 -22 64 49
0 91 87 -23 64 50
1 173 52 -100 48 58
0 91 87 -23 64 50
1 176 47 -111 55 68
2 215 130 162 68 46
0 91 87 -23 64 51
0 91 87 -23 64 51
1 175 56 -111 50 51
0 91 88 -22 64 50
1 177 49 -109 54 66
2 215 130 162 68 46
0 91 88 -23 64 50
0 91 87 -25 64 51
1 177 47 -110 54 69
2 215 130 162 68 46
0 91 87 -23 64 51
1 177 50 -111 53 62
2 215 130 160 67 46
0 91 87 -23 64 50
0 91 87 -23 64 50
1 177 46 -111 54 69
2 215 129 162 68 46
0 91 87 -22 64 50
0 91 87 -22 64 50
1 177 46 -107 54 69
2 215 129 162 68 45
0 91 87 -22 64 50
1 177 46 -106 54 69
2 215 129 160 68 46
0 91 87 -23 64 50
0 91 87 -23 64 50
1 176 47 -112 55 68
0 91 87 -23 64 51
1 177 47 -113 54 68
2 215 130 160 67 46
0 91 87 -25 64 51
0 91 87 -23 64 51
1 176 50 -113 55 63
0 91 88 -22 64 50
1 176 48 -115 55 66
2 215 130 162 68 46
0 91 88 -22 64 50
0 91 88 -22 64 50
1 177 47 -114 54 69
0 91 87 -23 64 51
1 176 48 -111 54 65
2 215 130 162 67 46
0 91 87 -24 64 51
0 91 87 -24 64 51
1 177 47 -111 54 68
0 91 87 -24 64 51
1 176 48 -110 55 65
2 215 129 160 68 45
0 91 87 -23 64 51
0 91 87 -23 64 51
1 176 47 -112 55 68
0 91 87 -23 64 51
1 177 47 -108 54 68
2 215 129 160 67 47
0 91 87 -23 64 51
0 91 87 -23 64 51
1 177 47 -111 54 69
0 91 88 -22 64 50
1 176 47 -113 55 69
2 214 130 160 67 46
0 91 88 -22 64 50
0 91 88 -21 64 50
0 91 88 -23 64 50
1 176 48 -115 55 68
2 215 131 162 67 44
0 91 88 -23 64 50
0 91 88 -23 64 50
1 176 48 -110 55 68
0 91 88 -23 64 51
1 177 48 -110 54 68
2 214 131 160 67 46
0 91 89 -22 64 50
0 91 88 -23 64 50
1 177 48 -107 52 68
0 90 88 -22 63 50
1 175 48 -110 55 68
2 215 131 163 68 44
0 91 88 -22 64 50
0 91 88 -23 64 50
0 91 87 -23 64 51
1 177 48 -112 54 66
2 215 130 162 67 46
0 91 88 -22 64 50
0 91 88 -22 64 50
1 177 49 -109 53 66
2 215 130 162 66 46
0 91 88 -23 64 50
1 177 47 -108 54 69
2 215 129 159 68 47
0 91 88 -25 64 50
0 91 88 -23 64 51
1 176 48 -110 55 68
2 215 131 160 66 46
0 91 89 -23 64 50
0 91 89 -23 64 50
1 176 49 -110 55 68
2 215 131 160 68 45
0 91 89 -23 64 50
1 176 49 -108 53 68
2 215 131 160 68 45
0 91 89 -23 64 50
1 176 49 -113 54 68
2 214 131 160 67 46
0 91 89 -23 64 50
1 176 49 -110 54 68
2 215 131 160 68 46
0 91 89 -23 64 50
0 91 89 -23 64 50
1 176 49 -112 53 68
2 214 130 162 67 45
0 91 89 -23 64 50
0 90 89 -24 63 50
1 176 49 -109 53 68
0 90 89 -24 63 50
1 176 49 -109 54 68
2 214 131 160 67 46
0 91 89 -24 64 50
1 176 50 -111 53 66
2 214 131 160 67 45
0 91 90 -22 64 50
0 91 90 -24 64 50
1 176 50 -113 54 68
0 90 90 -24 63 50
1 174 50 -99 50 68
2 214 132 161 67 46
0 90 90 -24 63 50
0 90 90 -22 63 50
1 174 61 -126 50 44
2 214 131 160 67 46
0 90 89 -24 63 51
0 90 89 -24 63 50
1 175 52 -115 55 62
2 214 131 160 67 45
0 90 89 -22 63 49
0 90 90 -22 63 50
1 175 49 -109 55 68
2 212 130 158 63 45
0 90 89 -22 63 49
0 90 89 -22 63 49
1 175 49 -111 54 68
0 90 90 -22 63 49
0 90 90 -24 63 50
1 175 49 -110 55 67
0 90 90 -24 63 50
0 90 90 -23 63 50
1 171 49 -107 46 66
0 90 90 -23 63 50
0 90 90 -22 63 48
0 90 90 -22 63 48
0 90 89 -24 63 49
0 90 89 -22 63 49
0 87 89 -25 57 49
0 83 89 -33 49 48
0 224 139 169 43 29
0 225 139 171 45 28
0 224 138 169 46 29
0 224 137 166 46 31
0 225 136 163 46 34
0 223 136 163 48 32
0 224 138 165 45 30
0 223 136 172 48 34
0 223 137 166 45 30
0 223 138 165 47 30
0 223 136 161 47 34
0 224 136 160 46 34
0 223 138 167 47 30
0 223 135 160 48 34
0 223 137 158 47 31
0 222 135 172 49 33
0 222 136 172 47 33
0 223 135 175 48 35
0 227 137 166 40 29
0 81 90 8 45 25
0 82 84 -5 47 36
0 82 83 -8 47 37
0 82 84 -5 47 38
1 175 46 -118 53 55
0 82 84 -2 47 38
1 175 44 -114 53 59
0 82 84 -5 47 38
0 82 83 -5 47 38
1 175 44 -116 55 58
0 82 83 -5 47 38
1 175 45 -115 53 58
2 214 131 157 64 43
0 82 83 -5 47 39
0 175 48 -110 53 66
1 214 130 154 66 46
0 82 83 -5 47 39
1 175 49 -115 54 66
2 214 130 155 65 45
0 82 84 -2 47 38
0 82 83 -5 47 37
1 175 49 -112 53 68
0 82 84 -5 47 38
1 175 49 -110 53 68
2 214 131 159 67 46
0 82 84 -5 47 38
0 82 83 -8 47 37
1 175 49 -112 54 68
0 82 83 -2 47 37
1 175 49 -110 53 68
2 214 130 162 67 45
0 82 84 -5 47 38
0 82 83 -5 47 37
1 176 49 -111 52 68
0 175 48 -112 54 67
1 214 131 162 67 44
0 175 52 -111 55 61
0 83 83 -8 48 37
1 175 49 -110 55 68
0 83 84 -2 48 38
1 176 50 -112 53 65
2 214 131 159 67 46
0 83 83 -8 48 39
0 83 83 -8 48 38
1 176 47 175 35 12
0 83 83 -8 48 38
1 175 58 -115 48 49
2 215 130 160 67 45
0 83 83 -5 48 38
0 83 82 -11 48 38
1 176 48 -110 53 68
2 215 130 160 67 46
0 83 82 -11 48 39
0 83 82 -11 48 39
0 83 82 -8 48 39
0 83 82 -8 49 39
1 176 48 -112 55 67
0 83 82 -10 49 38
1 176 47 -109 54 69
2 215 130 162 68 46
0 83 82 -8 49 39
0 83 82 -8 48 39
1 177 48 -109 52 68
0 83 82 -11 48 39
1 176 48 -109 54 68
2 215 130 160 68 46
0 83 83 -8 48 38
0 83 83 -5 48 38
1 176 48 -109 53 68
0 83 83 -8 48 39
1 176 49 -111 53 66
2 215 130 160 66 47
0 83 83 -8 48 38
0 83 83 -8 48 38
1 176 48 -111 53 67
0 83 83 -5 48 38
1 176 48 -108 54 69
2 215 130 160 67 47
0 83 83 -8 48 38
0 83 83 -5 48 38
1 174 55 -108 48 55
0 83 83 -5 48 38
1 176 49 -109 53 66
2 215 131 162 68 45
0 83 83 -5 48 38
0 83 82 -8 48 37
1 176 48 -109 53 68
2 215 130 160 67 46
0 83 83 -5 48 38
1 176 49 -111 53 65
2 215 130 160 68 46
0 83 82 -8 48 39
0 83 82 -11 48 38
1 177 52 -119 52 59
0 83 82 -8 48 39
1 177 48 -109 52 68
2 215 130 160 67 46
0 83 82 -5 48 38
0 83 82 -5 48 39
1 177 48 -109 53 68
0 83 82 -11 48 39
1 177 48 -108 52 68
2 215 130 160 68 47
0 83 82 -8 48 39
0 83 82 -8 48 39
1 177 48 -112 54 68
2 215 130 160 67 45
0 83 82 -8 48 39
0 83 82 -10 49 39
1 177 48 -108 54 68
0 83 82 -10 49 39
1 176 48 -109 55 68
2 215 130 160 68 47
0 83 82 -11 48 39
0 83 82 -10 49 39
1 175 58 -113 48 47
2 215 130 160 67 46
0 83 82 -8 48 39
0 83 82 -8 48 39
1 176 48 -111 55 68
0 83 82 -11 48 39
1 176 48 -114 55 68
2 215 130 162 67 46
0 83 83 -8 48 38
0 83 83 -8 48 38
1 177 49 -112 54 68
0 83 83 -8 48 39
1 176 49 -110 55 68
2 215 131 162 68 46
0 83 83 -8 49 39
0 83 83 -5 48 39
1 176 49 -109 53 68
0 83 83 -8 48 39
1 177 49 -108 52 68
2 215 130 160 68 47
0 83 83 -5 48 38
0 83 83 -5 48 38
1 177 47 -176 37 7
0 83 82 -8 48 39
1 176 48 -107 53 68
2 215 130 160 67 46
0 83 82 -11 48 38
0 83 82 -8 48 39
0 83 82 -8 49 38
1 176 48 -110 56 68
2 215 130 160 68 46
0 83 82 -8 48 39
0 83 82 -8 48 39
1 178 48 -109 52 68
0 83 82 -5 48 39
1 176 48 -110 55 68
2 215 130 160 67 46
0 83 82 -8 49 39
0 83 82 -8 48 39
0 83 83 -5 48 38
1 176 48 -110 53 68
2 215 131 162 67 46
0 83 83 -5 48 38
0 83 83 -5 48 38
1 176 49 -109 54 68
0 83 83 -5 48 38
1 176 49 -111 53 68
2 215 130 160 66 47
0 83 83 -5 48 38
0 83 83 -2 48 38
1 177 48 -109 52 67
0 83 83 -5 48 38
1 176 49 -110 53 67
2 215 130 160 68 47
0 83 82 -8 48 39
0 83 82 -8 48 38
0 83 82 -8 48 39
1 177 48 -109 52 68
2 215 130 160 68 46
0 83 82 -8 48 38
0 83 82 -5 49 38
0 83 82 -5 48 38
1 177 47 -106 53 68
2 215 130 160 68 46
0 83 82 -5 49 38
0 83 82 -5 48 39
1 176 47 -109 53 69
0 83 82 -7 48 39
1 176 48 -109 53 68
2 216 130 159 66 45
0 83 83 -5 48 38
0 83 83 -5 48 38
1 174 61 -115 48 44
0 83 83 -8 48 39
1 176 49 -109 54 68
2 215 130 160 68 47
0 83 83 -8 48 39
0 83 83 -5 48 39
1 176 49 -107 53 68
0 83 83 -8 48 39
1 176 49 -111 53 68
2 215 131 160 68 46
0 83 84 -5 48 38
0 83 83 -5 48 39
1 175 59 -115 50 48
0 83 83 -5 48 39
1 176 50 -112 54 66
2 215 131 162 66 46
0 83 83 -5 48 39
0 83 82 -11 48 37
1 176 49 -110 53 68
0 83 83 -5 48 39
1 176 49 -108 54 68
2 215 131 160 66 46
0 83 83 -2 48 38
0 83 83 -5 48 38
0 83 83 -5 48 39
1 176 49 -111 53 68
2 215 131 162 67 46
0 83 83 -5 48 39
0 83 83 -5 48 39
1 176 49 -110 54 68
0 83 83 -8 48 39
1 176 49 -110 54 68
2 214 131 162 67 46
0 83 83 -5 48 39
0 83 83 -7 48 39
1 177 49 -110 52 68
2 214 131 160 67 46
0 83 83 -11 48 39
1 176 49 -109 53 68
2 215 131 160 68 45
0 83 83 -8 48 39
0 83 83 -5 48 39
1 176 49 -110 53 68
2 214 131 158 67 46
0 83 83 -5 48 39
1 176 45 -139 36 13
2 215 131 160 67 46
0 83 83 -8 48 39
0 83 83 -8 48 39
1 175 49 -111 55 68
2 215 131 162 68 45
0 83 83 -8 48 39
0 83 83 -2 48 38
1 176 49 -109 53 68
0 83 83 -5 48 39
1 176 49 -109 53 68
2 215 131 162 68 46
0 83 83 -8 48 39
0 83 83 -5 48 38
1 176 49 -109 53 68
0 83 83 -5 48 38
1 176 51 -111 53 61
2 215 130 160 68 45
0 83 82 -8 48 39
0 83 82 -5 48 38
1 174 55 -107 49 53
0 83 82 -5 48 38
1 176 48 -109 54 68
2 215 130 160 68 46
0 83 82 -8 48 38
0 83 82 -8 48 39
0 83 82 -8 48 39
1 176 48 -109 53 68
2 215 130 160 68 45
0 83 83 -5 48 38
0 83 83 -5 48 38
1 176 49 -110 53 68
0 83 83 -5 48 39
1 176 49 -111 54 67
2 215 131 162 67 44
0 83 83 -5 48 39
0 83 83 -2 48 38
1 176 49 -111 53 68
0 83 83 -8 48 39
1 176 49 -110 53 68
2 215 131 162 66 46
0 83 83 -5 48 39
0 83 84 -5 48 38
1 175 49 -111 55 68
2 215 131 160 68 46
0 83 83 -5 48 39
0 83 83 -8 48 38
0 83 83 -8 48 38
1 177 49 -108 52 68
2 214 130 160 67 47
0 83 83 -5 48 38
0 83 83 -8 48 38
1 176 51 -109 51 61
2 215 130 160 68 45
0 83 82 -8 48 37
0 83 83 -5 48 38
0 83 83 -5 48 38
1 176 48 -108 53 68
2 215 130 160 67 47
0 83 83 -5 48 38
0 83 83 -5 48 38
0 83 83 -5 48 38
1 176 48 -109 53 67
2 214 130 160 67 45
0 83 83 -8 48 38
0 83 83 -5 48 39
1 177 49 -108 52 67
2 215 131 162 68 45
0 83 83 -5 48 38
0 83 83 -8 48 39
1 175 50 -112 55 65
0 83 83 -8 48 38
1 176 50 -110 52 65
2 215 131 160 68 46
0 83 83 -8 48 39
0 83 83 -5 48 38
1 176 49 -109 54 68
0 83 83 -8 48 38
1 176 50 -110 54 65
2 215 130 160 68 47
0 83 83 -8 48 39
0 83 83 -8 48 38
1 176 48 -112 53 67
0 83 83 -8 48 38
1 176 48 -111 54 68
2 215 130 160 68 46
0 83 82 -7 48 39
0 83 83 -5 48 38
1 175 49 -114 55 66
0 83 82 -8 49 39
1 176 48 -109 53 68
2 215 130 160 68 46
0 83 82 -8 48 38
0 83 83 -5 48 38
1 176 47 -110 53 67
2 215 130 160 68 46
0 83 83 -5 48 38
0 83 83 -8 48 39
1 176 49 -112 54 68
2 215 131 162 68 46
0 83 83 -8 48 39
0 83 83 -11 48 39
1 177 49 -106 52 68
0 83 83 -5 48 39
1 176 49 -107 53 68
2 215 131 160 68 45
0 83 83 -7 48 39
0 83 84 -5 49 38
1 177 49 -108 52 68
2 215 131 160 67 46
0 83 83 -8 48 38
0 83 83 -11 48 38
1 177 49 -113 54 68
2 215 131 162 67 46
0 83 82 -8 48 39
1 176 48 -109 53 68
2 215 130 160 68 45
0 83 82 -11 48 38
0 83 82 -5 49 38
1 176 47 -109 54 69
2 215 130 162 68 46
0 83 82 -5 49 39
0 83 82 -10 49 39
1 176 48 -108 54 68
2 215 130 160 67 47
0 83 82 -11 48 39
0 83 83 -8 48 38
1 176 49 -111 53 68
0 83 83 -8 48 39
1 176 49 -109 53 68
2 215 131 162 67 46
0 83 83 -8 48 39
0 82 84 -5 47 38
1 176 52 -110 52 62
0 82 84 -5 47 38
1 176 49 -109 53 68
2 215 131 160 66 47
0 82 84 -2 47 38
0 83 84 -2 48 38
1 175 51 -114 55 63
2 215 130 160 68 47
0 83 84 -2 48 38
0 83 84 -2 48 38
1 176 49 -107 53 68
2 215 131 160 68 46
0 83 83 -8 48 38
0 83 83 -8 48 38
1 176 49 -106 53 68
2 215 130 160 68 47
0 83 83 -8 48 38
0 83 83 -5 48 38
1 176 49 -110 54 67
2 215 130 160 68 47
0 83 83 -5 48 38
0 83 83 -2 48 38
1 177 49 -107 51 68
2 215 132 162 67 44
0 83 83 -2 48 38
0 83 83 -5 48 39
1 176 49 -108 53 67
2 215 130 160 68 47
0 83 83 -5 48 39
0 83 83 -5 48 39
1 176 49 -109 53 68
2 215 131 162 67 46
0 83 83 -5 48 39
0 83 83 -5 48 39
1 176 49 -109 53 68
2 215 131 162 68 46
0 83 83 -5 48 39
0 83 83 -5 48 39
1 176 49 -107 54 68
2 215 131 162 68 46
0 83 83 -8 48 38
0 83 83 -2 48 38
1 176 49 -107 54 68
2 215 131 160 68 46
0 83 83 -2 48 39
0 83 83 -5 48 39
1 176 49 -109 53 67
2 215 130 160 68 47
0 83 83 -8 48 38
0 83 83 -5 48 39
1 176 46 -128 35 11
2 215 132 162 67 44
0 83 83 -8 48 38
0 83 83 -8 48 39
1 176 49 -107 53 68
2 215 131 162 68 46
0 83 83 -5 48 39
0 83 83 -8 48 39
1 176 49 -108 53 68
2 215 131 162 68 46
0 83 83 -5 48 39
0 83 83 -8 48 38
1 176 49 -110 53 68
2 215 130 160 68 47
0 83 83 -5 48 39
0 83 83 -8 48 39
1 176 49 -107 54 68
2 215 131 162 68 46
0 83 83 -5 48 38
0 83 83 -5 48 38
1 177 49 -110 52 68
0 83 83 -5 48 39
1 177 50 -108 52 65
2 215 131 162 68 46
0 83 83 -5 48 39
0 83 83 -8 48 39
1 176 51 -112 53 64
2 215 131 160 67 46
0 83 84 -2 48 38
0 83 83 -8 48 39
1 176 49 -109 53 68
0 83 83 -8 48 39
0 83 83 -7 48 39
1 176 49 -109 53 68
2 215 131 162 68 46
0 83 83 -8 48 38
0 83 83 -5 48 39
1 176 49 -111 53 68
0 83 83 -5 48 37
1 176 50 -111 53 66
2 215 130 160 68 47
0 83 83 -5 48 38
0 83 83 -8 48 38
0 83 83 -2 48 39
1 176 49 -107 53 68
2 215 131 162 68 45
0 83 83 -2 48 39
0 83 83 -5 48 39
1 177 49 -110 52 68
0 83 83 -7 48 39
1 176 49 -109 53 68
2 215 131 162 67 46
0 83 83 -2 48 39
0 83 84 -2 48 38
1 176 49 -108 53 68
0 83 84 -5 48 38
1 176 49 -109 53 68
2 214 132 161 67 43
0 82 84 -2 47 38
0 83 83 -5 48 37
1 176 49 -112 53 68
0 83 84 -5 48 38
1 176 49 -109 53 68
2 215 131 160 68 46
0 83 84 -5 48 38
0 83 84 -5 48 38
1 176 49 -106 53 68
2 214 131 160 67 46
0 82 84 -5 47 38
0 82 84 -2 47 38
0 82 84 -5 47 38
1 176 49 -109 54 69
2 215 131 160 68 46
0 82 84 -5 47 38
0 82 84 -2 47 38
0 82 84 -5 47 38
1 177 49 -106 52 67
2 215 131 160 68 45
0 82 84 -5 47 38
0 83 84 0 48 38
1 176 49 -110 53 68
0 83 84 -5 48 38
1 176 49 -109 53 68
2 215 131 160 68 46
0 82 84 -5 47 38
0 82 84 -5 47 38
1 175 49 -111 55 68
2 214 131 160 67 46
0 82 84 -2 47 38
0 82 84 -8 47 38
1 175 49 -110 55 68
0 82 84 -2 47 38
1 176 49 -108 53 68
2 215 131 162 68 46
0 83 84 -5 48 38
0 82 84 -2 47 38
0 82 84 -5 47 38
1 176 50 -111 54 66
2 214 131 160 67 46
0 82 84 -2 47 38
0 82 84 -5 47 38
0 82 84 -5 47 38
1 175 49 -112 55 67
0 82 84 -5 47 38
1 176 49 -110 53 69
2 215 131 160 68 46
0 83 84 -2 48 38
0 83 83 -8 48 39
1 176 51 -111 53 64
2 215 131 160 68 46
0 83 83 -5 48 39
1 176 49 -108 53 68
2 215 131 160 68 46
0 83 83 -8 48 39
0 83 83 -5 48 39
1 176 52 -109 52 61
0 83 83 -5 48 39
1 176 50 -108 54 66
2 215 131 160 68 45
0 83 83 -8 48 39
0 83 83 -8 48 39
1 176 50 -109 53 66
0 83 84 -2 48 38
1 175 49 -112 55 68
2 215 131 160 68 46
0 83 84 -5 48 38
0 83 84 -5 48 38
1 176 49 -110 53 68
0 83 84 -8 48 38
1 176 49 -110 54 67
2 215 132 160 68 46
0 83 84 -8 48 38
0 82 84 -5 47 38
1 176 49 -106 53 68
0 83 83 -8 48 39
1 176 52 -116 53 61
2 215 131 160 68 45
0 83 83 -5 48 39
0 83 83 -5 48 38
1 176 49 -111 53 68
2 215 133 165 68 42
0 83 83 -2 48 38
1 176 49 -111 53 68
2 215 131 160 68 46
0 83 83 -2 48 37
0 83 83 -5 48 38
1 176 48 -109 54 68
0 83 83 -5 48 38
1 176 48 -107 53 67
2 215 131 160 68 46
0 83 82 -11 48 39
0 83 83 -5 48 38
1 176 49 -106 53 67
2 215 131 160 68 46
0 83 83 -5 48 37
0 83 83 -5 48 38
1 176 49 -113 53 68
0 83 83 -5 48 39
1 165 55 -99 31 39
2 216 131 159 66 46
0 83 83 -8 48 39
0 83 83 -2 48 39
1 176 49 -109 54 68
2 214 131 162 67 46
0 83 83 -2 48 39
0 83 83 -2 48 39
1 174 57 -112 49 52
2 215 131 162 68 45
0 83 83 -2 48 39
0 83 83 -2 48 39
0 83 83 -2 48 38
1 176 49 -109 53 68
2 215 130 160 67 47
0 83 83 -8 48 39
0 83 83 -5 48 38
1 178 49 -108 52 68
0 83 83 -8 49 39
1 176 49 -112 54 68
2 215 131 160 68 46
0 83 83 -5 48 39
0 83 83 -11 48 38
1 176 49 -111 56 68
0 83 83 -8 48 39
1 177 49 -108 53 68
2 215 131 162 68 46
0 83 83 -5 48 39
0 83 83 -2 48 39
0 83 83 -5 48 38
1 176 49 -109 53 68
2 215 131 160 68 46
0 83 83 -5 48 38
0 83 83 -5 48 39
1 176 49 -109 54 68
0 82 84 -2 47 38
1 176 49 -109 53 68
2 215 131 160 68 45
0 83 84 -2 48 38
0 82 84 -2 47 38
1 176 49 -111 53 68
0 82 84 -2 47 38
1 176 49 -111 53 68
2 214 131 159 67 46
0 82 84 -2 47 38
0 82 84 -2 47 38
0 176 50 -112 53 67
1 214 132 159 67 46
0 83 84 -5 48 38
0 82 84 -2 47 38
1 176 50 -110 53 68
0 82 84 -2 47 38
1 175 50 -111 55 68
2 215 132 160 68 46
0 177 50 -108 51 68
0 82 84 -2 47 38
1 176 50 -108 53 68
2 216 131 162 66 45
0 82 84 -5 47 38
0 83 84 -2 48 38
1 175 50 -112 55 66
0 83 83 -5 48 39
1 176 49 -108 53 68
2 215 131 160 68 46
0 83 83 -5 48 39
0 83 83 -5 48 39
1 215 131 160 68 46
0 83 83 -8 48 39
1 177 49 -108 52 68
2 215 131 160 68 45
0 83 83 -8 48 39
0 83 83 -8 48 39
1 176 49 -106 52 68
0 83 83 -8 48 38
1 177 49 -108 51 68
2 214 131 159 67 46
0 82 83 -11 47 39
0 83 83 -8 48 39
1 176 53 -110 53 60
0 83 83 -8 48 39
1 177 49 -110 50 69
2 216 131 159 66 45
0 83 83 -8 48 39
0 83 83 -8 48 39
1 175 49 -112 55 68
0 83 83 -8 48 39
1 177 49 -108 52 68
2 215 131 160 68 46
0 83 84 -5 48 38
0 83 83 -5 49 38
1 176 50 -109 54 66
0 83 83 -5 48 39
1 176 49 -108 53 67
2 215 130 160 68 47
0 83 83 -8 48 38
0 83 83 -8 48 39
1 176 50 -110 54 66
0 83 83 -11 48 39
1 176 49 -109 53 68
2 215 131 160 68 47
0 83 83 -8 48 39
0 83 84 -8 48 38
0 83 84 -8 48 39
1 176 51 -107 53 66
2 214 132 162 67 45
0 83 84 -8 48 39
0 83 85 -5 48 38
1 176 50 -110 53 68
0 83 84 -5 48 39
1 177 50 -108 52 68
2 214 132 162 67 46
0 82 84 -5 47 38
0 82 84 -5 47 39
1 176 50 -111 54 68
2 214 132 162 67 45
0 82 84 -5 47 39
0 82 84 -5 47 39
1 175 49 -109 54 68
0 82 84 -2 48 38
1 175 49 -111 53 68
2 214 131 162 67 46
0 82 84 -2 48 38
0 176 50 -107 52 68
1 214 131 160 68 47
0 82 84 -2 48 39
0 174 50 -110 53 68
0 175 50 -108 52 68
1 214 132 162 68 45
0 175 50 -109 53 68
0 81 85 -2 47 38
0 82 85 -2 48 38
0 175 50 -111 53 68
1 214 132 160 67 46
0 82 84 -5 48 38
1 175 50 -109 54 68
2 214 132 160 67 45
0 175 49 -109 54 67
0 175 49 -109 54 68
1 214 131 160 68 46
0 165 44 -90 16 14
1 214 131 162 67 45
0 174 50 -106 53 67
0 81 85 -2 47 38
1 175 50 -108 52 68
2 214 132 162 68 46
0 174 51 -108 53 68
0 174 51 -110 54 68
1 213 132 162 67 45
0 81 86 -2 46 38
0 174 51 -111 53 68
1 213 132 160 67 45
0 174 51 -108 52 68
0 213 132 162 67 45
0 81 86 -5 47 38
1 174 51 -111 54 67
2 214 132 162 66 45
0 175 52 -111 52 66
0 82 85 -5 46 37
0 174 51 -107 53 68
1 214 132 162 68 46
0 174 50 -108 54 67
0 82 85 -2 48 38
1 175 50 -111 54 68
2 214 131 162 68 45
0 176 50 -108 51 68
1 214 131 160 67 47
