0 75 159 150 64 51
0 47 75 -110 46 66
1 75 160 151 63 51
0 46 77 -107 46 67
1 76 163 151 62 51
0 45 79 -108 47 66
0 45 80 -108 45 66
0 44 80 -109 45 65
1 75 164 153 63 51
0 43 81 -125 45 65
0 43 81 -110 45 65
1 75 167 153 64 49
0 44 82 -105 43 65
1 75 166 153 63 50
0 43 82 -107 45 65
0 44 83 -107 44 66
1 77 167 152 62 50
0 44 83 -107 44 66
1 76 168 156 64 45
0 44 77 -109 43 57
0 43 82 -108 45 66
1 77 165 153 64 50
0 45 81 -105 44 66
1 77 165 154 63 50
0 46 81 -106 43 66
0 46 77 -109 45 59
1 80 164 151 60 50
0 47 80 -107 46 66
1 79 163 165 64 49
0 48 78 -107 45 65
0 49 77 -106 45 65
1 81 160 151 64 51
0 50 76 -108 45 65
1 82 159 152 63 49
0 52 76 -109 45 66
0 53 75 -107 45 65
1 85 158 153 63 49
0 55 76 -107 44 65
1 87 159 156 63 47
0 56 78 -105 43 65
0 60 80 -104 40 65
1 92 159 156 63 47
0 61 82 -106 42 64
1 11 107 -34 21 13
2 95 161 158 61 45
0 64 84 -105 40 62
0 67 85 -104 38 61
1 14 110 -17 27 18
0 68 86 -109 40 58
1 16 111 -19 30 20
2 103 162 155 59 43
0 71 89 -104 38 60
0 72 91 -102 37 60
1 19 115 -12 35 20
0 75 92 -105 36 59
1 22 117 -13 34 20
2 109 165 157 57 39
0 76 95 -102 36 58
0 77 97 -105 36 56
0 78 99 -102 34 57
1 28 123 -14 34 20
2 113 169 168 54 38
0 78 101 -102 35 55
0 79 102 -103 34 52
1 30 126 -14 33 19
0 78 103 -100 33 53
1 31 127 -14 32 19
0 78 105 -100 33 54
0 78 105 -100 32 54
1 31 128 -10 32 18
0 78 103 -101 32 51
1 31 127 -13 32 19
2 112 168 153 50 36
0 77 102 -101 32 51
0 76 101 -100 31 51
1 30 125 -10 31 18
2 110 164 155 50 35
0 76 100 -101 30 51
1 29 124 -10 31 18
2 108 163 157 49 35
0 74 99 -99 30 51
0 72 98 -100 31 51
1 28 123 -11 30 18
0 71 99 -98 30 52
1 27 123 -11 30 19
2 103 162 160 49 36
0 69 100 -98 29 52
0 67 101 -98 29 52
1 24 125 -12 29 19
0 65 101 -98 28 49
1 23 128 -7 29 18
2 100 164 157 48 35
0 63 105 -96 27 52
0 61 107 -96 27 51
1 21 134 -8 27 19
2 96 169 157 47 33
0 59 110 -96 25 48
1 20 137 -12 27 19
2 95 172 160 46 33
0 58 114 -94 24 49
0 56 119 -94 24 50
1 19 145 -12 26 19
0 53 121 -93 23 46
1 17 150 -8 25 19
2 91 181 160 45 31
0 17 154 -8 25 19
0 50 131 -90 21 48
1 90 186 164 44 26
0 49 134 -87 21 47
1 89 188 162 43 22
0 48 139 -86 21 49
0 48 141 -90 20 44
1 17 170 -4 25 18
0 47 141 -90 20 40
1 17 171 -8 25 17
2 88 191 171 43 15
0 46 145 -87 20 45
0 43 144 -87 19 46
1 15 172 0 24 16
2 85 191 174 42 16
0 40 136 -87 19 42
0 39 133 -87 19 41
1 12 164 -4 23 15
0 39 134 -90 20 45
1 12 163 -4 22 16
2 79 186 168 41 25
0 38 134 -87 19 44
0 38 133 -87 19 42
0 38 133 -87 19 42
1 12 163 -4 22 15
2 78 187 152 41 24
0 38 136 -86 19 45
0 38 137 -86 19 45
0 38 138 -87 19 43
1 12 168 0 23 16
2 79 188 174 41 21
0 38 137 -84 19 37
0 80 190 168 40 18
0 13 172 -4 23 16
1 80 190 158 40 17
0 14 172 -8 24 15
0 14 173 -4 24 15
0 14 173 -4 24 16
1 80 190 160 41 17
0 14 173 0 24 13
0 14 172 -4 24 15
0 14 171 -9 24 15
0 13 171 -4 23 14
0 13 170 -4 24 15
0 13 169 -8 24 15
0 12 168 -4 23 15
0 12 167 -9 23 15
1 79 189 165 40 20
0 12 166 -4 23 14
1 78 188 152 41 22
0 39 133 -83 19 35
0 12 163 -10 22 14
1 78 186 164 42 25
0 12 162 -4 22 12
0 12 160 -9 22 13
1 78 186 165 40 26
0 11 159 -10 21 13
0 11 158 -10 21 13
0 11 157 -10 21 13
0 11 157 -10 21 13
0 12 157 -10 22 13
0 12 157 -9 22 13
1 78 184 177 41 29
0 12 158 -5 22 11
0 12 156 -14 22 13
1 79 184 145 40 29
0 12 156 -4 22 14
0 12 154 -10 22 14
0 42 126 -90 20 46
0 12 151 -4 23 14
1 81 179 176 39 29
0 12 149 -8 23 15
0 13 151 -4 24 14
1 81 179 171 42 30
0 13 151 -8 24 15
1 81 180 155 42 31
0 13 154 -9 24 15
0 13 157 -9 24 16
1 81 185 180 41 28
0 13 161 -4 24 16
1 82 186 148 41 25
0 14 163 -9 24 15
0 14 165 -8 25 15
1 83 189 163 41 20
0 14 166 -8 25 15
0 14 166 -9 24 15
0 13 163 -9 24 15
1 81 188 154 41 22
0 12 161 -9 22 15
1 80 187 -177 41 24
0 12 159 -5 22 15
0 11 157 -4 21 13
1 79 185 165 42 28
0 11 155 -5 21 14
1 79 184 141 42 30
0 11 154 -5 21 13
0 11 152 -10 21 13
1 78 182 149 41 31
0 11 152 -5 21 14
1 78 182 180 42 32
0 11 151 -10 21 14
0 11 150 -10 21 13
0 11 148 -10 20 14
1 77 182 171 43 30
0 10 145 -16 19 13
0 9 143 -6 17 11
0 68 170 160 44 36
0 67 165 161 40 38
0 63 159 163 44 39
0 35 85 -104 29 44
0 59 148 162 43 41
0 58 137 128 41 41
0 56 133 163 46 40
0 57 125 136 43 45
0 55 121 156 49 46
0 38 46 -176 24 8
0 59 111 162 52 48
0 66 104 124 46 49
0 71 91 168 54 43
0 64 11 -139 35 22
0 90 45 166 57 53
0 111 22 152 55 37
0 115 18 158 54 36
0 167 8 -147 31 16
0 173 12 -140 38 25
0 171 7 -160 43 14
0 168 100 148 57 42
0 175 15 -133 42 31
0 166 98 139 66 55
0 174 19 -126 47 38
1 167 98 137 66 59
0 168 102 140 66 54
0 168 98 135 66 62
0 168 100 136 68 62
0 167 21 -155 59 43
0 164 22 -158 65 45
0 163 23 -142 65 46
0 163 24 -135 65 48
1 168 106 138 67 58
0 164 25 -136 63 50
0 163 26 -135 64 53
1 168 110 138 66 59
0 162 27 -128 65 55
0 162 28 -132 63 57
1 168 114 140 66 58
0 162 29 -132 64 59
0 160 31 -127 65 62
1 168 118 142 66 55
0 162 32 -127 62 63
0 161 33 -123 62 63
1 167 121 143 67 56
0 159 34 -128 65 63
0 159 36 -130 65 61
1 168 121 143 65 55
0 159 35 -124 65 63
0 160 37 -128 64 64
1 168 124 144 66 55
0 159 37 -125 64 63
0 160 40 -129 63 61
1 167 126 141 65 56
0 160 41 -129 64 62
0 160 41 -126 66 64
1 168 128 144 66 54
0 160 41 -123 65 64
0 160 42 -127 65 65
1 168 128 145 65 51
0 160 44 -130 65 63
0 161 45 -128 63 61
1 167 130 146 65 50
0 161 46 -131 63 59
0 161 45 -127 66 64
1 168 129 150 64 47
0 162 48 -129 66 60
0 71 44 -18 52 38
1 163 46 -128 67 66
2 170 132 148 64 48
0 166 50 -131 66 60
0 167 50 -126 67 66
1 75 47 -30 54 40
0 76 49 -31 55 41
0 168 54 -130 67 66
0 169 57 -131 66 67
0 171 61 -130 65 66
0 171 62 -133 67 62
0 171 62 -136 67 59
0 173 63 -132 66 57
0 174 64 -136 66 56
0 175 65 -137 66 54
0 176 67 -141 66 50
0 178 66 -139 63 51
0 178 67 -142 66 48
0 178 67 -145 66 47
0 178 67 -143 66 47
0 177 67 -143 65 47
0 177 69 -142 66 50
0 177 72 -136 66 55
0 176 75 -132 65 62
0 176 74 -128 66 62
0 175 74 -133 65 63
0 175 75 -132 65 64
0 175 74 -135 67 63
0 176 76 -133 66 59
0 176 74 -128 66 63
0 177 76 -131 64 64
0 176 77 -129 64 63
1 97 81 -54 38 56
0 177 80 -131 63 62
0 177 84 -133 65 56
1 96 81 -54 42 59
0 177 81 -132 64 62
0 177 83 -132 63 60
1 99 89 -46 39 48
0 177 83 -133 63 61
0 177 84 -131 63 61
0 176 87 -136 63 56
0 176 84 -132 63 60
1 178 159 150 56 38
0 176 85 -135 61 56
1 177 159 150 55 36
0 176 86 -135 62 56
0 175 83 -132 61 58
0 176 84 -133 59 56
0 175 84 -133 61 56
0 174 82 -132 61 59
1 175 156 144 54 39
0 174 85 -132 61 52
0 174 79 -133 58 53
1 174 155 144 54 38
0 174 80 -129 59 57
1 174 155 150 55 38
0 175 82 -131 57 55
0 175 80 -127 56 58
0 176 81 -126 54 54
0 176 80 -126 53 51
0 175 76 -128 54 58
0 174 73 -128 56 52
0 174 73 -130 56 54
0 172 68 -132 58 57
0 172 65 -130 57 58
0 171 60 -133 59 56
0 171 55 -126 58 56
0 171 50 -133 58 56
0 170 45 -132 59 56
0 170 40 -132 59 55
0 172 33 -128 59 57
0 174 32 -133 60 57
0 175 33 -132 60 57
0 175 34 -125 58 57
0 173 37 -125 57 58
0 168 46 -129 58 58
0 165 51 -127 56 58
0 162 56 -128 55 57
0 159 61 -123 56 59
0 154 70 -126 54 57
0 153 73 -119 52 57
0 152 74 -123 52 57
0 151 75 -120 51 56
0 151 75 -123 51 57
0 151 75 -119 51 56
0 151 74 -122 52 56
0 152 74 -123 51 56
0 152 72 -124 53 57
0 152 71 -120 53 55
0 153 72 -123 53 55
0 153 71 -124 53 56
0 153 71 -124 53 56
0 153 71 -124 53 57
0 153 72 -124 53 57
0 152 73 -121 53 57
0 151 74 -124 53 57
0 149 75 -124 53 57
0 149 75 -124 51 55
0 148 77 -119 52 58
0 147 78 -119 52 58
0 145 79 -121 51 57
0 144 80 -120 51 58
0 143 81 -122 51 56
0 142 80 -120 51 58
0 142 77 -121 50 53
0 141 78 -119 50 58
0 140 76 -121 51 57
0 140 75 -114 49 59
0 140 74 -113 50 59
0 139 74 -118 50 60
0 137 73 -117 51 60
0 136 69 -121 51 55
0 135 71 -116 51 59
0 134 71 -118 51 60
0 133 71 -117 51 60
0 132 69 -120 52 57
0 130 71 -116 51 58
0 128 71 -120 51 58
0 127 70 -118 50 57
0 123 71 -119 55 59
0 122 69 -120 55 61
0 121 65 -125 55 55
0 122 64 -119 54 60
0 123 61 -117 52 60
1 141 130 160 50 29
0 120 57 -119 55 61
0 119 50 -120 55 59
0 118 48 -117 56 61
0 117 46 -120 55 60
1 133 118 163 56 31
0 115 45 -123 57 60
1 132 117 162 56 31
0 113 42 -122 57 59
0 112 42 -122 56 61
1 126 115 170 55 34
0 110 42 -121 56 60
1 124 114 162 57 33
0 107 41 -118 56 61
0 105 41 -120 56 62
1 119 114 159 60 36
0 103 40 -119 54 61
1 117 115 158 59 38
0 99 40 -117 55 61
0 98 41 -119 54 61
1 113 116 157 61 39
0 96 41 -118 53 61
1 111 116 160 60 37
0 94 42 -120 54 60
0 89 42 -119 55 60
1 105 117 157 60 39
0 88 42 -115 53 60
0 86 41 -119 54 60
1 101 117 158 59 38
0 85 40 -121 53 60
1 100 115 156 59 40
0 83 38 -121 54 58
0 82 37 -118 53 60
1 98 114 150 55 44
0 83 31 -124 52 53
1 98 111 150 53 42
0 82 33 -120 53 59
0 82 31 -122 53 59
1 100 108 132 48 42
0 82 29 -121 54 58
1 101 106 140 46 44
0 82 28 -118 53 57
0 83 27 -123 54 55
1 101 104 128 43 41
0 83 26 -123 54 53
1 102 106 136 41 41
0 83 26 -122 53 53
0 83 25 -124 54 50
1 102 105 136 37 39
0 84 26 -120 52 52
1 102 106 133 36 37
0 83 25 -121 53 50
0 82 25 -123 55 51
1 98 105 127 37 45
0 82 25 -127 54 51
1 75 81 30 18 10
0 83 25 -128 53 51
0 84 25 -142 54 51
1 75 88 49 32 19
0 90 24 -121 49 49
0 98 23 -140 48 47
0 98 27 -164 31 19
0 111 24 -113 41 48
1 102 98 136 51 50
0 41 20 -42 37 33
0 43 26 -56 37 43
0 112 25 -124 49 50
1 45 27 -57 37 43
0 114 25 -145 47 48
0 113 27 -141 53 50
1 48 28 -56 37 43
0 49 29 -53 37 43
1 112 104 136 49 42
0 51 29 -55 38 43
0 52 29 -56 37 43
0 54 30 -53 38 42
0 121 28 -146 50 48
1 55 29 -55 38 42
0 122 27 -147 51 47
1 56 28 -51 37 42
2 118 98 126 48 49
0 57 27 -55 37 42
0 59 26 -57 37 42
1 119 96 115 48 50
0 127 25 -138 49 46
1 60 24 -56 37 41
0 61 22 -55 37 42
0 64 16 -45 37 32
1 122 92 133 48 41
0 65 13 -34 37 26
0 67 10 -17 38 20
0 67 10 -24 37 21
0 68 11 -34 36 23
0 67 12 -36 37 25
0 67 13 -39 36 27
0 66 14 -40 37 29
0 134 22 -121 44 44
1 65 15 -40 37 30
0 136 22 -116 40 45
0 135 24 -116 40 44
1 64 15 -42 36 29
0 63 15 -37 37 29
1 123 92 110 48 49
0 63 15 -42 37 29
0 134 22 -118 40 44
1 63 14 -40 37 29
0 64 14 -38 38 29
0 64 13 -36 38 27
0 135 20 -119 41 41
0 65 13 -36 38 26
0 65 12 -36 38 25
0 65 12 -36 38 25
1 126 90 142 50 40
0 136 19 -118 39 39
0 65 11 -33 38 23
0 65 11 -33 38 23
0 65 11 -33 38 23
1 127 87 144 51 42
0 65 11 -33 38 23
0 137 17 -123 38 35
1 65 11 -25 38 22
0 66 11 -30 38 22
0 66 11 -28 39 22
0 139 16 -122 40 33
0 68 9 -18 38 19
1 140 15 -127 38 31
2 131 83 148 52 37
0 69 8 -15 38 17
0 69 7 -7 38 14
1 138 13 -133 33 26
2 133 77 138 50 40
0 69 5 -6 38 11
0 71 4 -10 34 9
1 132 10 -166 35 21
0 129 4 -167 35 8
0 135 73 141 43 33
0 127 10 -167 31 20
0 67 4 -12 29 9
0 66 5 -15 30 10
1 127 10 -133 25 20
0 127 10 -136 24 20
0 126 21 152 50 38
0 123 19 143 51 38
0 83 53 91 38 57
0 82 49 100 45 56
0 86 45 100 47 56
0 100 36 116 48 57
0 115 28 109 48 56
0 118 27 142 56 45
0 126 22 136 56 45
0 140 18 149 55 36
0 54 3 -3 29 6
0 52 6 -15 32 13
0 48 9 -23 33 18
0 45 14 -21 33 20
0 43 18 -25 33 20
1 110 8 -97 15 17
0 41 22 -23 33 19
0 39 26 -21 33 20
0 38 30 -21 33 20
0 38 32 -18 34 19
0 37 35 -17 34 20
0 37 37 -17 34 20
0 101 22 -108 34 45
0 38 39 -17 36 20
0 99 25 -112 42 50
1 38 39 -20 35 22
0 103 25 -102 35 50
0 40 38 -17 36 21
1 114 102 145 57 42
0 103 21 -113 41 43
1 40 36 -21 35 23
2 114 97 146 58 51
0 41 34 -25 36 24
0 105 22 -120 48 45
1 43 29 -25 36 25
2 114 97 146 57 47
0 107 22 -128 50 44
0 108 21 -128 51 42
1 45 25 -26 36 26
2 115 93 136 57 54
0 112 20 -131 50 41
1 47 22 -29 36 27
2 117 92 136 56 54
0 49 20 -31 36 27
0 116 20 -135 52 40
1 50 19 -32 37 28
0 52 17 -29 37 28
1 119 19 -135 52 39
2 119 91 135 55 55
0 120 19 -140 56 39
0 127 19 -133 54 39
1 58 14 -33 37 28
0 128 19 -146 55 39
1 60 13 -30 36 26
2 121 91 127 54 58
0 130 19 -146 56 38
0 133 18 -143 55 37
1 64 11 -26 35 22
2 121 90 124 52 58
0 134 18 -168 57 36
0 136 17 -157 59 34
1 67 8 -19 33 16
2 119 86 122 52 59
0 137 16 -159 59 33
0 140 15 -158 60 31
1 118 84 118 49 59
0 141 15 -159 61 30
0 145 14 -163 61 28
1 118 82 114 47 59
0 146 13 -162 63 27
0 149 13 -165 61 27
1 118 80 114 47 61
0 150 13 -167 63 26
0 153 13 -158 59 26
1 119 79 108 44 61
0 153 13 -168 63 26
0 156 13 -165 62 26
1 118 78 105 44 60
0 157 12 -176 61 25
1 117 77 106 43 60
0 159 12 -161 58 24
0 158 11 175 63 23
1 118 75 102 40 60
0 161 11 -167 60 22
0 162 10 -169 60 21
1 117 72 102 39 57
0 117 70 100 38 58
0 166 9 -173 59 18
1 117 70 100 38 56
0 167 9 -170 60 18
0 168 8 -176 60 17
1 118 66 95 36 59
0 118 66 98 35 58
0 171 8 -176 59 17
1 119 65 94 33 58
0 173 8 -166 59 17
0 175 9 -174 59 18
1 122 65 91 32 57
0 178 10 -178 58 20
0 180 10 -170 57 21
1 125 66 91 32 57
0 182 10 172 59 21
0 186 11 176 58 23
1 129 67 90 30 56
0 188 11 180 58 23
0 191 12 -172 57 24
1 134 66 90 30 56
0 194 12 177 56 24
0 196 11 178 57 23
1 138 63 88 31 56
0 197 10 180 57 21
1 140 62 90 31 56
0 198 10 180 57 20
0 200 9 -173 56 18
1 142 59 92 31 56
0 201 8 -173 56 17
0 203 8 180 56 16
1 146 57 90 31 55
0 204 7 180 56 15
0 206 7 177 56 14
1 151 56 90 31 56
0 208 6 -173 55 12
0 210 6 -175 55 12
1 156 54 92 31 55
0 213 5 180 54 11
0 214 4 180 55 9
1 162 52 92 32 55
0 216 4 180 54 8
0 218 3 180 54 7
1 167 50 92 32 55
0 219 3 180 54 6
0 220 2 -177 53 5
1 171 49 94 34 56
0 222 2 180 52 4
0 223 2 -177 51 4
1 175 48 96 35 56
0 224 1 180 52 3
1 177 48 96 35 56
0 225 1 -177 51 2
0 181 46 100 38 56
0 182 44 100 39 55
0 183 43 100 39 56
0 185 42 102 40 54
0 187 39 102 40 55
0 188 37 104 42 56
0 189 35 106 43 56
0 191 32 106 43 57
0 192 34 108 43 52
0 193 31 109 45 56
0 195 31 109 45 56
0 196 30 111 46 56
0 196 29 111 47 57
0 197 29 111 48 57
0 198 31 112 48 55
0 199 31 111 47 57
0 199 33 114 49 56
0 200 32 112 49 59
0 202 34 115 50 56
0 202 35 119 51 54
0 204 34 116 50 55
0 205 34 116 50 55
0 206 33 115 50 57
0 207 34 121 52 55
0 208 34 117 51 57
0 209 35 120 53 56
0 210 33 119 53 59
0 211 36 121 53 54
0 212 34 122 53 59
0 211 37 123 55 56
0 210 36 123 56 58
0 209 37 120 55 60
0 209 43 127 56 51
0 209 46 131 57 50
0 210 44 123 55 60
0 209 50 128 57 53
0 209 51 128 57 53
0 210 49 128 58 59
0 210 55 131 57 49
0 211 55 133 58 51
0 213 55 131 58 54
0 215 52 130 60 56
0 216 53 133 57 51
0 216 49 133 59 58
0 217 51 136 60 52
0 217 51 138 59 50
0 218 45 131 60 59
0 217 47 135 61 56
0 217 49 135 61 54
0 217 46 129 61 59
0 216 49 132 61 56
0 212 51 136 60 52
0 209 50 135 62 54
0 207 47 132 61 60
0 205 45 133 64 61
0 204 45 132 63 60
0 204 48 136 62 53
0 203 46 133 64 58
0 202 44 131 65 62
0 201 49 136 65 54
0 200 47 133 65 60
0 199 48 133 65 61
0 197 50 133 64 60
0 194 50 132 65 64
0 191 56 139 65 54
0 188 54 136 65 57
0 186 54 137 66 58
0 184 57 142 66 52
0 182 55 139 66 55
0 181 54 138 66 58
0 180 56 143 66 54
0 180 58 143 66 52
0 180 57 139 65 54
0 180 55 141 65 55
0 181 55 140 65 54
0 183 54 141 63 52
0 184 50 141 64 52
0 184 45 137 64 57
0 184 45 145 64 48
0 182 41 143 65 51
0 182 41 142 64 49
0 180 41 143 64 49
0 177 44 156 64 46
0 141 59 105 48 63
0 140 60 105 49 66
0 141 65 105 46 58
0 140 62 105 47 65
0 140 63 104 47 66
0 141 62 103 46 67
0 142 63 98 46 65
0 142 64 103 45 65
0 142 66 104 46 62
0 142 66 107 46 61
0 142 65 101 45 64
0 142 64 102 46 66
0 186 0 180 29 1
1 143 64 100 44 66
0 143 63 100 44 66
0 142 63 100 43 66
0 142 61 100 44 67
0 141 62 100 43 66
0 185 1 -178 47 2
1 141 62 100 43 66
0 194 0 180 43 1
1 142 63 99 42 63
0 141 63 100 43 66
0 142 63 99 42 66
0 193 4 -174 59 8
1 141 63 100 44 67
0 193 4 180 59 8
1 141 64 99 43 66
0 195 4 -174 63 8
0 195 4 -174 63 8
1 142 64 100 44 66
0 193 3 -173 56 7
1 143 63 99 44 65
0 144 62 99 44 65
0 145 60 100 44 67
0 145 61 100 45 66
0 147 60 101 46 67
0 147 61 103 47 65
0 148 60 102 48 67
0 149 61 102 46 68
0 149 61 104 48 68
0 149 62 102 48 67
0 149 62 104 48 68
0 148 62 106 50 68
0 148 62 105 49 70
0 146 62 107 51 69
0 146 63 107 50 67
0 145 64 107 50 66
0 144 66 109 50 61
0 142 63 109 51 67
0 141 62 108 53 69
0 141 65 110 53 66
0 141 63 110 54 70
0 141 63 110 53 69
0 142 64 111 54 70
0 143 66 113 55 65
0 143 64 115 57 68
0 145 63 113 56 69
0 145 65 112 56 64
0 145 63 118 58 65
0 144 62 115 59 68
0 144 62 118 59 66
0 144 62 118 59 65
0 145 61 118 60 67
0 145 65 122 60 60
0 145 62 120 61 68
0 146 67 124 61 59
0 147 61 119 60 69
0 147 65 125 62 61
0 148 60 121 62 69
0 147 64 128 63 59
0 148 64 129 63 58
0 149 63 129 64 59
0 149 58 127 65 65
0 151 56 114 62 68
0 150 55 127 66 68
0 154 58 126 60 60
0 152 56 131 65 62
0 153 53 122 66 66
0 155 56 136 68 57
0 155 54 138 68 60
0 156 54 135 68 61
0 154 60 139 68 54
0 153 55 131 67 65
0 153 61 139 67 53
0 154 58 132 66 60
0 152 57 132 68 63
0 153 60 136 65 57
0 151 58 129 67 66
0 150 63 133 67 58
0 150 65 135 65 60
0 150 68 135 65 54
0 150 67 132 65 59
0 150 66 117 63 64
0 150 68 129 64 61
0 151 70 128 62 60
0 152 69 123 59 63
0 150 71 126 63 62
0 151 75 128 62 55
0 151 73 125 60 62
0 150 76 126 61 58
0 150 76 123 59 60
0 150 73 119 59 67
0 150 74 117 58 68
0 149 74 115 57 69
0 148 78 120 58 62
0 172 2 180 44 5
1 146 77 117 57 65
0 173 1 -178 49 3
0 176 8 -159 50 17
1 146 78 115 56 65
0 180 9 -158 52 18
1 146 77 111 54 68
0 182 9 -171 59 18
0 184 9 -172 63 19
1 145 79 110 52 66
0 145 79 110 51 67
0 188 10 -164 61 21
0 144 81 106 49 67
0 189 11 -178 65 23
0 144 82 102 46 67
0 189 13 169 67 26
0 142 86 104 44 60
0 192 13 -160 63 27
0 140 83 100 44 67
0 191 14 175 66 28
1 139 84 101 43 65
0 138 84 98 43 66
0 191 14 -159 65 28
1 138 84 99 42 64
0 137 83 97 41 65
0 191 14 175 65 29
0 192 14 -143 64 29
1 136 83 99 42 65
0 192 14 -147 63 29
1 135 83 99 41 64
0 135 83 97 40 64
0 133 82 97 39 65
0 188 14 176 64 28
0 129 82 97 40 65
0 127 83 97 39 63
0 126 83 95 40 64
0 180 14 -178 63 29
1 125 84 97 40 63
0 124 83 97 41 65
0 178 14 -171 64 29
0 178 19 -163 62 20
1 124 83 99 41 65
0 177 14 -171 64 29
1 124 83 97 41 65
0 126 82 97 41 65
0 184 13 178 63 26
1 132 80 97 41 65
0 188 12 178 64 24
0 190 11 -162 63 22
1 138 76 99 42 65
0 193 9 -163 62 19
1 140 73 100 43 66
0 195 8 -169 64 16
0 197 6 -172 65 13
1 146 69 100 46 66
0 201 5 -172 62 11
1 150 68 101 45 65
0 204 4 -174 60 9
0 201 4 178 55 8
1 156 64 102 47 67
0 159 63 104 49 67
0 161 62 105 49 69
0 163 61 105 51 70
0 166 61 106 50 68
0 167 60 108 52 67
0 168 57 107 53 69
0 169 56 110 53 69
0 171 54 110 54 69
0 174 52 107 52 69
0 173 52 111 55 66
0 175 49 111 56 70
0 177 48 113 57 69
0 179 49 114 57 68
0 181 50 116 58 65
0 183 49 114 57 65
0 183 47 115 58 68
0 184 46 115 58 68
0 184 45 115 57 68
0 185 40 120 60 66
0 186 37 120 59 65
0 190 33 128 62 59
0 192 32 126 63 58
0 196 29 126 64 59
0 199 31 131 64 54
0 204 28 130 62 56
0 205 29 131 63 53
0 205 29 135 66 54
0 207 29 135 66 53
0 209 28 133 66 56
0 210 29 137 67 53
0 213 28 133 65 56
0 215 28 135 66 56
0 217 28 135 66 56
0 218 28 136 67 56
0 219 28 136 67 56
0 220 28 136 67 56
0 221 30 139 68 54
0 222 31 139 67 54
0 223 31 140 68 55
0 224 32 137 68 55
0 225 32 137 66 55
0 225 33 138 68 56
0 225 32 137 67 57
0 226 33 139 67 56
0 227 33 136 68 58
0 227 33 138 68 57
0 227 34 136 67 58
0 227 31 133 67 63
0 227 34 135 67 60
0 227 35 132 68 62
0 227 37 133 66 60
0 226 37 135 67 61
0 225 37 132 67 64
0 225 37 132 67 65
0 225 40 129 65 64
0 224 40 131 67 66
0 224 42 131 67 66
0 224 44 130 66 65
0 224 46 130 66 65
0 223 53 136 65 55
0 223 51 126 63 67
0 222 52 127 64 67
0 222 55 125 62 66
0 220 60 133 64 57
0 219 57 126 64 68
0 219 62 129 64 62
0 218 62 127 63 67
0 217 67 129 63 61
0 216 66 126 63 67
0 216 72 132 62 59
0 215 71 126 62 66
0 214 75 130 63 61
0 213 76 126 63 63
0 213 75 126 62 67
0 220 2 180 38 4
0 217 2 178 48 5
1 212 84 132 62 57
0 224 2 180 39 5
0 223 9 176 50 18
1 211 87 129 61 59
0 223 13 -173 55 26
0 223 14 -178 62 28
1 210 90 125 61 63
0 223 15 -174 62 31
0 225 16 -157 55 33
1 209 93 124 59 65
0 222 17 -178 62 35
1 210 99 127 58 57
0 222 19 -163 59 38
0 206 102 123 58 64
0 219 22 -171 63 45
0 221 23 -159 58 47
0 221 25 -150 57 50
1 204 109 124 58 63
0 221 26 -147 56 52
0 203 115 124 56 60
0 202 115 124 58 64
0 206 21 -137 21 12
1 201 117 123 57 63
0 124 11 -24 44 23
1 201 118 122 57 63
0 124 13 -32 46 26
0 123 14 -36 47 29
1 200 122 123 56 59
0 124 15 -36 48 31
0 123 16 -42 49 33
1 198 124 123 57 61
0 123 17 -45 50 35
1 198 126 124 57 60
0 123 18 -45 51 37
0 123 19 -40 53 39
1 212 44 -141 65 50
0 124 20 -43 54 41
1 214 43 -157 62 53
2 199 128 124 56 60
0 124 22 -46 56 44
0 124 24 -46 56 47
1 201 130 123 55 61
0 124 26 -45 57 48
0 124 27 -48 57 49
1 215 46 -157 62 57
0 124 29 -48 57 50
1 216 49 -132 59 54
2 203 133 121 53 59
0 124 30 -48 56 51
0 124 32 -51 57 52
1 215 51 -152 64 53
0 124 33 -48 58 53
1 214 52 -135 63 53
2 203 135 124 55 60
0 124 35 -51 58 55
0 123 37 -52 57 56
1 205 139 123 52 56
0 123 38 -51 57 57
1 213 53 -160 65 57
2 204 138 122 51 58
0 123 39 -53 58 59
0 123 41 -52 58 60
1 204 144 129 52 48
0 123 42 -52 58 60
1 213 56 -160 66 56
2 204 140 122 51 57
0 123 43 -53 58 62
0 123 43 -55 58 62
0 123 44 -54 58 62
1 212 57 -135 67 59
2 203 142 120 49 58
0 123 44 -55 58 63
0 123 45 -54 58 63
0 123 46 -54 58 63
1 213 61 -133 67 59
2 202 146 118 49 57
0 123 47 -55 58 63
0 123 49 -55 58 64
1 201 149 118 47 56
0 122 49 -57 57 63
1 213 66 -137 66 58
2 201 150 115 46 57
0 122 50 -57 57 64
0 122 51 -57 57 64
0 122 52 -57 58 64
1 213 69 -138 66 59
2 200 155 117 44 51
0 121 53 -57 57 64
0 121 54 -58 58 65
1 211 73 -137 68 58
2 199 157 113 42 53
0 121 55 -60 57 65
0 120 56 -58 57 65
0 120 58 -58 57 66
1 210 77 -136 67 58
2 196 160 113 43 54
0 120 59 -58 57 65
0 120 60 -60 56 65
1 210 80 -136 66 58
2 196 160 114 42 51
0 119 61 -60 57 65
0 119 62 -60 56 65
1 208 83 -139 67 58
0 119 64 -60 56 66
1 207 85 -139 67 55
2 193 164 116 42 50
0 118 65 -60 56 65
0 117 66 -61 55 65
1 206 87 -141 66 57
0 116 68 -60 55 65
1 204 90 -142 67 56
2 189 168 112 40 47
0 114 72 -61 54 66
0 112 73 -60 55 65
1 200 95 -142 66 56
2 184 173 116 40 44
0 111 75 -61 54 65
0 109 77 -61 54 65
1 196 99 -138 65 56
0 107 79 -60 55 65
1 195 101 -141 64 56
2 180 177 120 41 42
0 106 81 -62 54 65
0 105 83 -60 55 65
1 193 103 -143 63 56
0 104 85 -60 55 64
1 192 104 -140 64 56
2 180 179 122 42 40
0 104 86 -59 56 64
0 103 89 -57 55 63
1 192 105 -138 64 57
2 182 179 123 42 40
0 103 91 -58 57 64
0 103 92 -55 57 63
1 192 106 -140 63 56
0 104 94 -56 57 64
1 192 105 -137 64 55
2 185 180 132 43 38
0 104 94 -54 58 63
0 104 95 -53 58 62
1 194 105 -133 59 58
2 188 179 132 43 39
0 104 95 -50 59 61
1 192 103 -132 65 59
2 189 179 130 44 40
0 104 95 -51 59 62
0 104 95 -51 60 62
1 193 101 -130 63 60
0 104 94 -50 60 62
1 194 99 -130 63 59
2 194 178 132 45 41
0 105 94 -49 60 62
0 104 94 -47 61 62
1 195 96 -130 62 61
0 105 94 -47 62 62
1 196 95 -125 62 61
2 198 173 131 47 45
0 105 94 -46 62 62
0 105 94 -43 63 61
0 105 95 -45 63 62
1 197 93 -123 60 62
2 202 171 133 48 44
0 105 96 -43 63 59
0 105 96 -43 63 60
1 195 91 -125 63 64
0 105 97 -42 63 58
1 196 90 -123 61 64
2 205 170 138 49 44
0 106 96 -41 64 61
0 105 96 -41 64 60
0 105 97 -36 64 58
1 195 85 -120 63 65
2 207 166 140 51 43
0 105 96 -41 64 59
0 105 96 -41 64 59
0 105 96 -38 64 59
1 194 86 -172 37 14
2 210 161 143 53 45
0 105 97 -39 64 58
0 104 97 -36 65 58
0 104 97 -35 65 57
1 196 79 -124 56 66
2 212 161 152 54 39
0 104 97 -35 65 57
0 104 99 -34 64 56
1 192 94 -145 39 33
2 214 159 154 56 40
0 104 100 -34 64 56
0 103 100 -32 65 55
1 194 73 -109 53 61
0 103 101 -30 64 54
1 192 73 -115 56 60
2 214 155 151 58 43
0 103 102 -30 64 54
0 102 103 -29 65 54
1 214 154 155 59 43
0 102 103 -28 65 53
1 214 155 153 59 42
0 102 105 -31 64 54
0 101 106 -28 64 52
0 101 107 -28 64 52
1 215 154 154 59 42
0 100 107 -28 64 52
0 99 107 -25 64 51
1 214 152 158 62 43
0 99 108 -26 64 51
0 98 108 -25 64 51
1 214 151 160 62 41
0 97 109 -23 64 50
1 214 151 162 62 41
0 96 109 -22 64 49
0 95 109 -23 64 50
1 212 152 167 65 36
0 94 109 -23 64 49
1 213 151 169 64 35
0 93 110 -23 64 50
0 92 110 -21 64 49
1 212 148 165 65 38
0 91 111 -19 63 48
0 91 112 -21 63 48
1 212 147 169 67 37
0 91 113 -21 63 48
1 170 82 -146 43 23
2 214 147 165 64 39
0 92 114 -22 63 47
0 92 116 -19 63 47
1 216 148 167 62 39
0 92 117 -17 63 47
0 92 118 -21 62 47
1 172 73 -105 49 68
2 215 148 167 64 38
0 91 119 -19 62 46
0 91 119 -19 62 46
0 90 119 -17 61 45
1 169 73 -101 49 68
2 214 148 167 62 38
0 170 73 -101 48 68
0 88 119 -17 61 45
1 168 72 -101 48 68
2 212 146 168 65 37
0 88 119 -18 61 45
0 88 119 -17 60 45
1 166 71 -105 49 67
2 213 146 167 64 37
0 167 71 -101 48 68
0 165 71 -101 49 68
1 87 119 -15 60 44
2 212 145 168 64 37
0 86 118 -17 61 45
0 166 70 -101 48 68
1 86 118 -15 61 44
0 165 70 -102 50 68
1 86 117 -18 60 45
2 210 145 165 65 38
0 165 70 -103 49 68
0 165 70 -104 49 69
1 86 117 -17 61 45
0 166 71 -103 49 69
1 86 117 -17 61 45
2 209 147 167 64 37
0 166 73 -103 49 68
0 166 74 -105 51 69
0 168 75 -104 50 69
1 87 117 -20 61 45
2 207 151 165 63 38
0 167 76 -105 52 68
0 168 77 -106 52 68
1 88 117 -22 60 46
0 169 77 -105 50 68
1 88 116 -22 60 47
2 205 153 163 63 38
0 169 78 -108 52 68
0 170 79 -109 53 67
1 89 115 -25 59 48
2 205 155 160 62 39
0 171 80 -110 53 67
0 173 80 -110 52 66
1 90 114 -26 59 49
2 204 156 162 62 37
0 173 81 -111 53 65
0 175 83 -114 54 66
1 92 113 -30 59 50
2 203 159 160 62 38
0 175 83 -112 55 67
0 176 84 -115 55 66
1 93 111 -29 60 50
2 202 160 160 61 39
0 176 84 -115 57 66
1 93 110 -30 60 51
2 201 159 160 61 37
0 176 84 -116 57 66
0 94 109 -32 60 51
0 177 84 -118 57 65
1 94 108 -32 60 51
2 200 160 159 58 38
0 94 108 -33 60 52
0 94 107 -36 59 52
0 179 87 -119 57 65
1 94 106 -33 59 52
2 197 164 156 58 38
0 95 106 -37 58 54
0 182 90 -123 58 64
1 97 105 -38 58 54
0 184 90 -119 58 63
1 98 104 -37 59 54
0 99 104 -39 59 54
1 184 90 -120 59 63
0 100 102 -39 59 55
1 186 91 -124 60 63
0 101 100 -40 59 55
1 188 91 -125 59 62
0 102 99 -40 59 56
1 188 91 -127 61 61
0 102 98 -42 59 56
1 189 91 -127 61 62
0 103 96 -45 59 57
1 190 91 -128 62 62
0 103 95 -43 59 56
0 103 93 -45 59 57
1 192 90 -131 62 60
0 104 93 -47 58 58
1 192 92 -129 61 62
0 104 92 -46 59 59
0 104 91 -47 59 59
0 104 91 -46 59 58
1 193 94 -135 62 60
0 104 90 -49 57 60
1 193 94 -133 64 60
0 105 89 -49 58 60
0 105 88 -50 57 59
1 194 95 -137 64 59
0 106 87 -53 58 61
0 106 87 -51 57 61
1 195 96 -139 64 57
0 106 86 -51 57 61
0 106 86 -53 56 62
1 194 97 -135 65 58
0 106 85 -53 57 60
0 106 86 -54 56 62
1 194 98 -138 65 58
0 106 86 -53 56 61
0 105 85 -54 57 61
1 193 98 -138 65 57
0 106 85 -54 56 61
0 106 85 -55 56 61
1 194 99 -138 65 58
0 106 85 -55 57 62
0 107 85 -57 56 62
1 195 99 -138 65 57
0 107 85 -55 57 62
0 108 85 -56 56 62
1 197 100 -141 66 57
0 108 85 -54 57 62
0 109 85 -56 56 62
1 197 100 -141 67 57
0 109 85 -55 57 63
0 109 85 -54 57 63
1 199 100 -143 66 57
0 109 85 -54 57 63
0 110 85 -55 58 63
1 200 102 -141 65 57
0 110 86 -54 58 63
0 110 87 -55 57 64
1 201 102 -141 66 57
0 111 87 -54 58 63
0 111 87 -54 58 63
1 202 103 -140 66 57
0 111 88 -54 58 64
0 112 88 -54 58 62
1 203 104 -141 66 58
0 112 88 -54 59 63
0 112 89 -54 59 62
0 113 89 -51 58 61
1 205 106 -139 66 60
0 113 91 -53 59 62
0 113 91 -54 59 61
1 205 107 -141 66 59
0 113 93 -53 59 62
0 114 93 -51 60 61
1 205 109 -142 67 59
0 114 95 -54 59 62
0 114 95 -53 59 61
1 207 111 -141 66 59
0 115 97 -53 60 63
0 115 98 -50 60 60
1 206 114 -139 67 59
0 115 99 -52 59 60
1 207 114 -141 65 57
0 116 100 -51 60 59
0 116 102 -51 61 61
1 207 117 -138 67 59
0 117 104 -48 60 60
0 117 103 -49 60 57
1 208 119 -138 66 59
0 117 106 -49 61 61
1 209 120 -137 66 59
0 117 106 -49 61 59
0 118 107 -50 60 59
1 210 121 -138 65 59
0 118 108 -49 60 58
0 118 108 -49 60 58
1 210 121 -141 65 54
0 117 110 -50 61 60
0 117 109 -46 61 57
1 210 122 -138 66 58
0 118 109 -43 62 57
0 117 110 -47 61 57
1 210 122 -137 66 59
0 117 109 -43 61 55
1 209 122 -142 65 56
0 117 109 -40 62 55
0 116 110 -45 61 57
1 208 123 -141 66 58
0 115 111 -45 61 56
0 115 111 -45 61 56
1 207 120 -140 66 57
0 115 112 -45 61 56
0 116 111 -39 62 53
1 207 120 -135 64 58
0 116 112 -45 61 55
0 117 113 -43 61 55
1 208 121 -135 63 59
0 118 114 -45 61 56
0 119 114 -45 61 56
1 209 120 -136 63 59
0 120 114 -43 61 55
0 121 112 -43 60 53
1 210 118 -135 62 57
0 121 112 -45 61 55
0 121 112 -43 60 56
1 210 117 -135 63 58
0 121 111 -45 60 55
0 121 111 -45 60 56
1 210 116 -133 62 59
0 121 110 -43 60 57
0 121 110 -47 60 59
1 210 115 -138 64 58
0 121 109 -45 60 57
0 120 108 -45 60 57
1 209 113 -136 63 59
0 120 107 -45 60 56
0 118 105 -45 60 57
1 207 109 -132 63 59
0 117 105 -45 60 58
0 115 104 -47 60 59
1 204 106 -132 63 60
0 113 103 -46 60 57
0 112 104 -47 60 58
1 200 105 -133 63 61
0 111 105 -49 59 59
0 110 106 -47 59 58
1 198 108 -132 62 60
0 110 106 -46 58 57
0 109 109 -46 58 59
1 196 110 -131 61 60
0 109 114 -46 57 56
0 109 117 -45 58 56
1 194 115 -128 61 59
0 108 117 -43 58 55
1 193 114 -131 60 59
0 107 118 -46 58 56
0 106 117 -43 57 54
1 192 111 -125 58 58
0 107 117 -40 58 55
0 108 118 -38 58 52
1 191 109 -123 59 60
0 109 119 -39 58 53
0 111 120 -37 58 52
1 194 109 -124 56 60
0 112 121 -38 57 52
0 113 122 -40 57 52
1 195 110 -123 57 60
0 114 122 -37 58 52
0 114 121 -37 57 51
1 196 110 -121 56 58
0 114 120 -38 57 50
1 196 108 -125 55 59
0 114 118 -38 57 52
0 114 115 -38 57 51
1 197 105 -125 56 59
0 115 113 -38 57 51
0 115 112 -40 57 52
1 198 103 -126 57 56
0 114 110 -40 57 53
0 115 110 -42 58 54
1 199 101 -124 56 60
0 114 110 -42 57 54
0 114 110 -40 58 53
1 197 101 -124 57 60
0 114 110 -40 58 53
0 113 111 -40 58 54
1 197 101 -126 57 59
0 112 112 -41 57 54
0 112 111 -40 58 53
1 195 101 -128 58 58
0 111 113 -40 58 54
0 111 113 -39 58 53
1 194 102 -122 57 59
0 111 114 -40 58 53
0 110 115 -37 59 53
1 194 103 -120 57 61
0 110 115 -40 58 53
0 110 116 -38 58 53
1 193 103 -125 58 60
2 205 175 156 55 33
0 109 116 -37 59 53
0 109 115 -39 59 53
1 193 103 -122 58 61
0 108 114 -38 59 53
1 193 102 -122 57 62
2 208 169 128 34 26
0 108 112 -40 59 53
0 109 112 -38 60 54
1 193 97 -128 58 57
0 109 111 -37 59 54
0 109 112 -37 59 54
1 194 99 -123 57 61
2 207 171 156 54 32
0 111 114 -39 59 54
1 195 98 -120 56 59
2 208 171 155 54 31
0 111 116 -36 59 53
0 112 118 -37 59 53
0 112 119 -36 59 51
1 195 102 -117 53 61
2 210 173 157 53 34
0 112 120 -34 59 50
0 113 119 -34 58 49
1 195 101 -117 54 60
2 211 169 163 52 27
0 114 118 -33 58 50
0 114 116 -33 59 50
1 196 97 -119 51 60
2 214 165 160 53 32
0 116 114 -33 58 48
1 196 91 -123 53 55
2 215 163 162 51 31
0 118 111 -31 58 49
0 120 110 -31 58 49
1 200 91 -118 53 59
0 122 108 -33 59 49
1 202 89 -119 53 59
2 221 163 159 52 31
0 124 108 -33 59 50
0 126 107 -31 59 49
1 206 89 -119 52 57
0 128 106 -34 58 49
1 207 88 -120 53 59
2 225 159 156 49 33
0 130 107 -34 58 49
0 131 107 -34 58 49
1 210 90 -117 52 58
0 133 109 -33 58 48
1 210 91 -119 51 58
2 228 159 154 47 34
0 134 110 -34 57 48
0 135 111 -34 57 48
0 136 112 -31 57 47
1 214 94 -116 48 58
2 231 164 155 47 34
0 137 114 -31 57 47
0 138 115 -32 56 47
1 215 96 -116 48 57
0 138 117 -34 57 47
1 214 97 -116 50 56
2 233 165 156 46 34
0 138 118 -29 57 45
0 138 118 -29 57 46
1 213 97 -117 49 56
0 138 118 -29 57 45
1 214 98 -118 48 54
2 233 162 158 47 33
0 138 118 -30 56 45
0 138 118 -30 56 44
1 213 96 -113 47 56
0 138 118 -30 56 45
1 212 95 -116 47 57
2 233 163 158 46 30
0 138 118 -29 56 44
0 138 118 -29 57 44
1 212 94 -113 47 55
0 139 118 -30 56 44
1 212 94 -113 47 54
2 235 159 151 45 35
0 140 118 -28 56 44
0 140 118 -29 57 44
1 213 93 -117 47 55
0 141 117 -27 56 43
1 214 93 -113 46 55
2 236 158 158 44 33
0 141 117 -27 56 43
0 142 118 -28 56 42
1 214 93 -113 45 55
0 143 118 -27 56 43
1 215 93 -115 46 55
2 238 156 159 44 31
0 143 118 -27 56 43
0 143 119 -27 55 42
1 215 93 -112 45 55
2 239 157 157 46 33
0 144 119 -25 55 41
1 215 93 -112 45 55
2 240 157 157 45 32
0 145 119 -25 56 42
0 145 120 -25 55 42
1 216 93 -113 44 55
2 240 156 165 45 27
0 145 120 -25 55 42
0 146 119 -22 56 41
1 216 92 -114 43 53
0 146 119 -25 55 41
1 217 92 -110 44 54
2 242 155 157 44 31
0 146 119 -23 55 41
0 146 120 -25 55 42
1 217 92 -110 44 55
2 242 155 158 45 31
0 146 120 -22 55 41
1 216 92 -110 43 53
2 242 155 156 44 32
0 146 120 -23 55 41
0 146 120 -23 55 41
0 146 121 -23 55 40
1 217 92 -111 42 55
2 243 155 162 44 31
0 146 122 -23 55 40
0 146 121 -22 56 40
0 146 121 -22 56 41
1 216 92 -107 41 54
2 243 154 161 44 30
0 145 121 -25 55 41
0 145 121 -22 56 40
0 145 120 -22 56 41
0 145 120 -22 56 41
1 215 90 -108 41 54
2 243 151 159 45 31
0 145 120 -22 56 41
0 145 120 -20 56 40
1 214 89 -107 43 55
0 145 120 -22 56 41
1 214 89 -108 41 54
2 244 151 158 44 32
0 145 120 -21 56 41
0 145 121 -20 56 40
1 214 88 -109 42 55
0 145 121 -22 56 40
1 214 88 -105 41 55
2 244 151 159 45 31
0 144 121 -20 55 39
0 144 121 -20 56 39
1 213 87 -105 41 55
0 144 121 -19 56 39
1 212 87 -109 41 55
2 244 149 164 46 31
0 143 121 -17 56 39
0 142 122 -18 56 38
1 210 86 -105 41 55
2 243 148 166 47 30
0 141 122 -16 56 38
0 139 122 -15 56 38
1 207 85 -103 41 56
2 242 146 166 48 30
0 138 122 -20 56 38
0 137 122 -17 56 37
1 205 83 -103 40 55
2 241 145 167 47 30
0 136 123 -17 57 38
0 136 123 -15 56 38
1 204 83 -102 39 56
0 136 123 -15 56 38
1 204 83 -101 39 56
2 241 145 169 49 30
0 135 123 -15 57 38
0 135 124 -15 57 38
1 204 82 -103 40 57
0 135 124 -15 56 37
1 203 83 -101 39 57
2 241 145 167 47 30
0 134 125 -14 57 38
0 133 126 -15 57 37
1 202 84 -103 40 57
0 133 127 -12 57 37
1 201 84 -101 39 57
2 240 146 169 50 29
0 132 128 -15 57 37
0 132 129 -12 57 37
0 131 130 -14 57 37
1 199 86 -100 39 57
2 240 147 170 49 29
0 129 131 -12 57 37
0 128 132 -12 57 36
1 196 86 -99 39 57
2 239 148 172 49 28
0 127 132 -12 57 36
1 196 86 -99 39 58
2 238 148 172 51 28
0 127 132 -15 57 37
0 126 132 -12 58 36
1 195 85 -101 40 59
0 126 132 -12 58 37
1 194 85 -99 39 58
2 238 147 173 54 29
0 125 132 -10 58 36
0 125 132 -12 58 37
1 239 147 172 52 29
0 124 133 -12 59 38
1 195 85 -98 40 60
2 239 148 173 53 30
0 124 133 -14 59 38
0 124 134 -12 59 38
1 194 85 -100 41 61
2 239 149 173 53 29
0 124 134 -12 59 37
0 124 136 -14 59 38
1 195 87 -98 40 61
0 123 137 -12 59 38
1 194 88 -99 41 61
2 239 152 173 54 30
0 123 137 -12 59 39
0 123 138 -12 59 37
1 194 89 -99 40 61
2 238 153 173 55 30
0 122 139 -12 59 38
0 122 139 -14 59 38
1 193 90 -99 40 61
2 239 154 173 54 29
0 121 140 -12 59 37
1 192 90 -99 40 61
2 237 155 175 55 28
0 120 142 -12 59 38
0 119 142 -12 59 37
1 190 92 -97 39 61
2 236 155 175 55 27
0 119 143 -10 58 37
0 187 92 -97 40 61
1 118 143 -12 58 37
2 235 155 177 55 28
0 117 144 -10 58 36
0 116 144 -10 58 36
1 185 92 -97 39 61
2 234 154 177 56 28
0 184 91 -99 39 61
0 114 144 -10 58 36
1 183 91 -97 40 61
2 233 154 177 57 28
0 182 91 -97 39 62
0 112 145 -10 58 36
1 181 91 -97 40 62
2 232 154 180 56 28
0 180 91 -97 40 62
0 110 145 -7 59 35
1 179 90 -97 40 63
2 231 154 180 57 28
0 179 90 -95 38 63
0 109 146 -7 58 35
1 178 90 -95 38 63
2 230 154 180 57 28
0 108 147 -9 58 36
0 175 91 -93 38 62
1 107 147 -7 58 35
2 229 154 180 58 28
0 106 148 -7 58 35
0 173 90 -93 38 63
1 105 148 -8 57 35
2 228 154 180 57 28
0 173 90 -91 36 63
0 171 90 -95 39 62
1 104 149 -5 58 34
2 228 153 180 58 28
0 171 90 -93 37 62
0 170 89 -93 38 63
1 102 149 -5 57 34
2 227 152 180 58 29
0 169 89 -93 37 62
0 168 88 -93 37 63
1 101 149 -6 57 34
2 226 151 180 58 29
0 100 149 -6 57 34
0 167 87 -91 36 63
1 100 149 -8 57 34
2 225 150 -178 59 29
0 99 148 -6 57 33
1 165 87 -91 37 62
2 225 149 180 58 29
0 165 86 -91 36 63
0 164 86 -91 36 62
1 98 148 -6 57 33
2 224 148 -178 59 29
0 98 148 -4 56 33
0 97 149 -3 57 32
1 162 85 -90 36 63
0 161 85 -90 34 63
1 97 150 -4 57 32
2 223 146 -176 59 31
0 160 85 -88 35 63
0 159 86 -88 36 63
1 96 151 -3 57 31
2 223 145 -174 58 33
0 158 86 -88 36 63
0 156 87 -86 37 64
1 95 154 -2 57 30
2 221 145 -174 59 34
0 155 87 -86 37 64
0 154 87 -86 38 64
1 95 155 0 58 29
2 221 143 -174 59 34
0 153 87 -84 39 63
0 152 86 -84 39 65
1 95 156 2 58 30
2 220 142 -170 59 36
0 151 86 -84 39 64
0 150 85 -82 40 65
1 93 156 2 58 30
2 219 140 -170 60 36
0 149 85 -82 40 65
0 147 85 -82 41 64
1 92 157 2 58 30
2 218 139 -170 61 38
0 146 85 -81 41 66
0 145 85 -82 41 66
1 90 158 4 59 31
2 216 138 -170 61 38
0 143 86 -81 42 67
1 90 159 4 58 31
2 216 138 -166 62 39
0 142 86 -81 43 67
0 141 86 -81 43 67
1 89 160 6 58 32
2 215 138 -166 62 40
0 140 86 -81 43 67
0 139 86 -81 43 67
1 88 161 6 58 32
2 214 137 -166 62 41
0 139 87 -79 44 68
0 138 87 -79 44 67
1 87 162 6 58 32
2 213 137 -168 62 41
0 137 88 -79 44 68
0 136 88 -79 43 68
1 85 163 8 58 33
2 211 138 -166 63 41
0 135 89 -79 44 68
0 134 89 -75 45 68
1 84 164 6 57 32
0 135 89 -79 44 68
1 84 164 6 57 32
2 210 139 -166 64 42
0 133 89 -77 45 67
0 133 88 -79 44 67
0 132 89 -77 45 68
1 82 164 6 57 32
2 209 138 -166 64 42
0 131 88 -77 45 69
0 131 88 -77 46 69
1 81 164 6 57 32
2 207 138 -166 65 42
0 130 88 -77 45 67
0 130 88 -77 45 68
1 81 164 6 57 32
2 207 137 -165 65 43
0 130 88 -78 46 69
1 81 164 6 56 32
2 207 137 -165 64 43
0 130 88 -79 44 68
0 129 88 -79 45 69
1 80 164 6 56 32
2 205 137 -165 65 43
0 129 88 -79 44 68
0 128 88 -77 45 67
1 80 163 6 56 33
0 129 88 -79 44 68
1 79 163 6 55 32
2 205 137 -166 65 42
0 128 88 -77 45 65
0 128 88 -77 45 68
1 79 163 7 55 32
2 204 136 -165 65 43
0 129 88 -79 44 68
0 129 87 -79 44 65
1 79 162 6 55 32
2 205 136 -166 65 42
0 129 86 -78 46 68
0 129 84 -78 45 68
0 129 84 -79 45 69
1 79 159 6 55 33
2 206 134 -167 66 42
0 128 85 -77 45 68
0 127 85 -79 45 67
1 78 161 6 55 32
2 204 135 -166 65 43
0 128 86 -79 44 68
0 129 86 -79 44 68
1 79 161 4 55 32
2 205 136 -166 65 42
0 130 87 -78 44 68
0 129 87 -79 43 66
1 79 160 4 54 31
0 129 84 -78 45 66
1 79 158 11 53 32
2 206 133 -168 64 41
0 133 84 -79 45 66
0 138 86 -77 44 66
1 211 136 -166 63 40
0 140 87 -75 43 63
0 141 90 -79 42 63
1 213 139 -166 62 40
0 141 92 -80 40 62
1 212 140 -165 61 40
0 141 94 -78 42 62
0 141 95 -80 40 63
1 212 141 -165 61 40
0 140 95 -77 41 59
0 140 94 -78 40 62
1 91 162 20 50 29
0 138 91 -79 40 63
1 89 161 14 51 30
2 209 138 -170 61 38
0 137 89 -78 41 62
0 136 87 -76 41 63
1 86 157 6 53 30
0 135 85 -82 39 63
1 85 156 4 54 31
2 206 134 -166 62 39
0 132 84 -80 41 63
0 131 84 -80 40 64
1 81 156 4 53 31
2 203 133 -166 64 40
0 130 85 -81 42 64
0 129 86 -78 41 65
1 80 159 9 53 32
2 202 133 -164 63 41
0 127 86 -77 43 65
0 127 87 -79 43 65
1 80 160 11 52 32
2 201 134 -166 63 42
0 127 87 -78 43 65
1 80 160 12 52 32
2 201 134 -166 63 42
0 127 87 -78 43 65
0 126 85 -77 43 65
1 79 158 7 53 32
2 201 132 -166 63 42
0 127 84 -77 44 65
0 127 83 -79 43 65
1 79 157 6 54 32
0 128 84 -80 41 66
1 78 157 6 53 32
2 201 131 -166 64 41
0 127 84 -79 43 66
0 128 84 -79 42 65
1 79 158 7 52 32
0 128 85 -79 42 66
1 79 158 9 52 31
2 202 132 -166 64 41
0 129 85 -80 42 65
0 129 86 -76 43 65
1 82 158 11 52 31
0 131 86 -79 42 64
1 83 158 9 52 32
2 204 133 -168 63 41
0 132 86 -77 43 64
0 134 85 -79 42 64
1 86 156 7 52 31
0 136 86 -79 41 64
1 87 156 7 53 31
2 208 134 -166 62 40
0 138 86 -80 39 63
0 140 87 -80 39 63
1 90 156 4 53 30
2 210 136 -167 60 38
0 140 87 -78 40 61
0 140 87 -80 39 62
0 141 87 -80 39 62
1 91 154 4 52 29
2 209 136 -167 60 37
0 142 87 -82 38 60
0 142 87 -82 38 61
1 91 154 2 52 28
0 143 86 -82 37 59
1 91 153 4 52 29
2 209 137 -171 59 35
0 143 87 -84 37 60
0 143 87 -84 37 61
1 91 153 2 51 28
0 144 88 -82 37 60
1 91 153 4 51 27
2 209 139 -174 59 34
0 144 88 -84 37 60
0 145 89 -84 36 60
1 92 154 4 52 28
0 145 89 -84 36 59
1 92 154 2 52 28
2 210 141 -171 57 33
0 146 89 -86 35 59
0 146 90 -84 35 58
1 93 153 0 52 28
2 210 143 -173 57 32
0 148 90 -86 34 58
0 150 90 -86 34 58
1 94 150 -2 52 27
0 150 89 -88 33 57
1 94 149 -2 51 28
2 211 144 -175 55 29
0 152 89 -90 32 57
0 153 89 -90 32 57
1 95 147 -2 51 28
0 154 89 -90 32 57
1 96 146 -4 51 29
2 212 146 180 56 27
0 156 90 -91 34 57
0 157 90 -91 34 57
1 97 145 -6 51 31
2 213 148 177 56 27
0 158 90 -93 33 57
0 158 91 -93 35 58
1 98 144 -8 52 32
0 160 90 -93 36 57
1 98 142 -8 52 33
2 212 150 177 57 27
0 98 140 -8 53 33
0 165 87 -97 38 59
1 98 135 -12 54 36
2 212 151 175 57 30
0 165 86 -99 41 60
0 168 84 -101 41 58
1 98 128 -15 55 39
0 169 83 -103 43 61
1 99 126 -17 56 40
2 211 150 169 59 33
0 99 123 -19 56 41
0 174 82 -107 47 61
1 99 119 -21 57 43
2 210 153 164 58 36
0 99 118 -24 57 44
0 99 117 -24 57 45
1 175 83 -111 49 62
0 100 116 -25 58 46
1 177 84 -108 48 62
2 208 155 160 58 37
0 100 115 -25 58 46
0 100 114 -25 58 46
1 178 84 -111 50 62
0 100 113 -26 58 46
1 179 83 -110 48 61
2 206 156 159 59 39
0 100 112 -26 58 46
0 100 108 -29 58 47
1 179 83 -114 51 61
2 204 157 158 58 38
0 99 105 -31 57 47
0 99 102 -31 57 49
1 180 79 -115 52 61
0 100 98 -31 58 49
1 181 77 -116 54 61
2 202 151 155 58 39
0 101 95 -33 58 49
0 102 92 -34 58 50
1 184 73 -115 53 61
0 103 87 -36 58 51
1 185 68 -123 56 56
2 202 147 150 58 44
0 104 78 -38 58 53
0 104 77 -40 58 54
1 188 64 -122 57 61
0 103 77 -39 59 54
1 188 65 -121 57 62
2 199 143 147 58 45
0 103 78 -40 58 54
0 102 79 -40 58 54
1 186 67 -126 58 61
0 101 79 -41 57 54
1 185 69 -123 59 60
2 195 146 144 58 45
0 101 78 -41 57 54
0 102 76 -41 57 54
0 103 72 -43 56 53
1 188 67 -125 58 57
2 193 144 143 58 45
0 103 68 -40 57 52
0 104 63 -43 56 53
1 189 64 -133 59 53
0 104 59 -45 55 51
1 189 62 -135 61 53
2 190 138 139 58 48
0 105 56 -45 55 51
0 105 53 -45 55 52
1 191 57 -128 59 55
2 189 135 136 56 50
0 106 51 -43 55 50
1 191 58 -140 61 51
2 189 135 138 56 48
0 106 48 -46 54 51
0 105 47 -46 54 50
1 190 54 -135 61 55
0 104 44 -43 55 49
1 189 52 -137 63 57
2 184 132 133 57 53
0 103 43 -46 53 48
0 101 39 -46 54 47
0 99 37 -43 54 46
1 184 48 -133 63 54
2 177 128 135 57 52
0 97 36 -45 53 46
0 96 32 -46 52 45
1 182 45 -133 64 55
2 174 126 131 57 54
0 96 30 -45 52 45
0 96 26 -45 52 44
1 182 40 -136 64 56
2 172 122 129 59 57
0 95 23 -45 51 43
0 96 21 -43 52 43
1 183 35 -137 62 55
0 96 20 -40 52 40
1 182 33 -137 65 54
2 172 116 128 57 58
0 96 19 -40 51 38
0 182 30 -140 65 54
1 96 18 -38 51 36
0 182 28 -141 65 55
1 96 16 -29 50 33
2 171 112 130 59 57
0 182 26 -138 65 52
0 182 25 -146 66 51
1 96 14 -23 51 28
0 183 25 -140 64 50
1 96 13 -22 50 26
2 171 106 125 57 60
0 182 24 -146 66 48
0 180 22 -149 66 45
1 94 10 -16 50 21
2 168 102 128 60 61
0 179 22 -152 65 44
0 178 20 -148 66 41
1 93 8 -15 47 16
2 165 98 126 61 61
0 177 19 -156 66 39
1 165 98 126 62 62
0 175 19 -174 67 38
0 174 17 -157 67 34
1 164 94 129 62 61
0 174 16 -158 67 33
0 171 14 -157 62 29
1 163 88 129 64 63
0 169 14 -158 59 28
0 164 82 127 63 64
0 165 80 128 63 64
0 164 78 131 65 63
0 165 75 131 66 64
0 165 74 132 65 62
0 167 70 129 64 64
0 168 63 133 66 61
0 168 60 133 67 63
0 170 54 131 67 64
